<?xml version="1.0" encoding="UTF-8" standalone="no"?>
<svg
   xmlns:dc="http://purl.org/dc/elements/1.1/"
   xmlns:cc="http://creativecommons.org/ns#"
   xmlns:rdf="http://www.w3.org/1999/02/22-rdf-syntax-ns#"
   xmlns:svg="http://www.w3.org/2000/svg"
   xmlns="http://www.w3.org/2000/svg"
   xmlns:sodipodi="http://sodipodi.sourceforge.net/DTD/sodipodi-0.dtd"
   xmlns:inkscape="http://www.inkscape.org/namespaces/inkscape"
   width="3300"
   height="1200"
   viewBox="0 0 3093.7498 1125"
   id="svg2"
   version="1.1"
   sodipodi:docname="effects_bad_application_2.svg"
   inkscape:version="0.92.4 5da689c313, 2019-01-14">
  <sodipodi:namedview
     pagecolor="#ffffff"
     bordercolor="#666666"
     borderopacity="1"
     objecttolerance="10"
     gridtolerance="10"
     guidetolerance="10"
     inkscape:pageopacity="0"
     inkscape:pageshadow="2"
     inkscape:window-width="1366"
     inkscape:window-height="705"
     id="namedview47"
     showgrid="false"
     inkscape:zoom="0.23655936"
     inkscape:cx="2604.6626"
     inkscape:cy="533.52844"
     inkscape:window-x="0"
     inkscape:window-y="30"
     inkscape:window-maximized="1"
     inkscape:current-layer="svg2" />
  <defs
     id="defs4" />
  <metadata
     id="metadata7">
    <rdf:RDF>
      <cc:Work
         rdf:about="">
        <dc:format>image/svg+xml</dc:format>
        <dc:type
           rdf:resource="http://purl.org/dc/dcmitype/StillImage" />
        <dc:title></dc:title>
      </cc:Work>
    </rdf:RDF>
  </metadata>
  <g
     id="g1231"
     transform="translate(0.18834953,0.00327224)">
    <g
       id="g1173">
      <g
         id="g1114"
         transform="translate(3410.4109,140.87975)">
        <path
           inkscape:connector-curvature="0"
           id="path3402-6-7-7-3-9-2-3"
           d="m -1843.8418,255.86523 c -27.9542,-0.0586 -50.0319,30.05226 -43.9141,56.80079 0.785,81.65588 -2.0058,163.38049 1.7305,244.98437 7.2633,30.82154 51.5337,42.41584 73.7656,20.43555 15.4849,-14.76752 16.4282,-38.18437 13.6953,-58.07032 18.0224,23.89275 35.5781,49.40485 60.3926,66.82422 29.3196,13.60687 67.5372,-15.67466 61.2715,-47.59765 -5.4733,-25.4977 -27.7653,-41.90999 -42.037,-62.30068 -5.8948,-7.48197 -11.6641,-15.063 -17.6427,-22.47862 20.8867,-21.32433 44.8756,-40.86426 58.9258,-67.75195 9.4754,-30.6395 -23.5856,-64.68289 -54.433,-55.37422 -23.5331,9.71124 -38.4095,31.6433 -56.7545,48.17258 -3.0499,3.17986 -6.0813,6.37558 -9.1152,9.57078 -0.084,-35.60891 2.3742,-71.76362 -4.0606,-106.9375 -7.3172,-15.81107 -24.3405,-26.72366 -41.8242,-26.27735 z"
           style="font-style:normal;font-variant:normal;font-weight:normal;font-stretch:normal;font-size:medium;line-height:125%;font-family:Quicksand;-inkscape-font-specification:Quicksand;letter-spacing:0px;word-spacing:0px;fill:#f7f7f7;fill-opacity:1;stroke:none;stroke-width:1.18228471px;stroke-linecap:butt;stroke-linejoin:miter;stroke-opacity:1" />
        <path
           inkscape:connector-curvature="0"
           id="path3404-2-4-1-6-3-3-6"
           d="m -1561.9336,257.00391 c -23.8914,0.15928 -43.4066,21.27746 -47.1055,43.95312 -28.5619,80.64206 -60.909,159.97585 -86.4843,241.65625 -3.4629,31.94758 35.5413,57.75685 63.9023,43.48438 19.1359,-9.56618 26.7076,-31.38969 32.3322,-50.58665 1.5086,-4.53628 3.0584,-9.06324 4.8377,-13.50124 22.338,0.27303 44.6772,-0.0823 67.0157,0.0234 7.4585,22.14038 13.8618,47.20724 33.291,62.17774 26.3613,16.51253 66.9806,-4.49118 67.1798,-35.99244 -2.1387,-32.18826 -20.7098,-59.98487 -29.0101,-90.56913 -22.8767,-61.64641 -43.1378,-124.38581 -69.9041,-184.49703 -8.5791,-10.69906 -22.4836,-16.40926 -36.0547,-16.14843 z m 1.1524,174.00586 c 0.2669,2.21857 -0.7409,-0.1059 0,0 z"
           style="font-style:normal;font-variant:normal;font-weight:normal;font-stretch:normal;font-size:medium;line-height:125%;font-family:Quicksand;-inkscape-font-specification:Quicksand;letter-spacing:0px;word-spacing:0px;fill:#f7f7f7;fill-opacity:1;stroke:none;stroke-width:1.18228471px;stroke-linecap:butt;stroke-linejoin:miter;stroke-opacity:1" />
        <path
           inkscape:connector-curvature="0"
           id="path3406-9-4-1-7-6-7-7"
           d="m -1343.6895,334.27344 c -59.7883,0.16908 -113.3895,51.30783 -119.4277,110.2539 -8.4755,57.80525 26.7482,120.43623 82.7383,139.41993 55.5038,19.56291 123.0559,-10.5461 145.791,-64.80274 25.8275,-53.38988 10.7864,-124.70284 -37.5487,-160.23049 -20.3037,-15.68838 -45.7787,-25.03458 -71.5529,-24.6406 z m 0.1485,89.7539 c 24.3855,1.56433 39.0926,30.93156 29.6855,52.56641 -5.2249,14.55146 -21.4215,27.42466 -37.3496,21.80664 -21.4743,-7.60335 -29.9444,-36.05623 -18.9101,-55.29492 4.9754,-10.08991 14.6885,-19.25558 26.5742,-19.07813 z"
           style="font-style:normal;font-variant:normal;font-weight:normal;font-stretch:normal;font-size:medium;line-height:125%;font-family:Quicksand;-inkscape-font-specification:Quicksand;letter-spacing:0px;word-spacing:0px;fill:#f7f7f7;fill-opacity:1;stroke:none;stroke-width:1.18228471px;stroke-linecap:butt;stroke-linejoin:miter;stroke-opacity:1" />
        <path
           inkscape:connector-curvature="0"
           id="path3408-1-3-5-5-0-5-5"
           d="m -1181.9004,274.52148 c -29.6311,0.20778 -51.1024,33.09682 -44.1797,60.81836 0.8507,6.91976 4.9234,12.9459 8.0449,18.88086 -12.3828,18.24215 -7.3748,41.41611 -7.579,61.98828 0.2278,48.27023 -2.5369,96.82694 2.5762,144.88702 9.4499,28.26835 50.0326,37.42181 71.8075,17.85712 15.1158,-13.62218 16.9066,-35.84508 15.1938,-54.8335 -1.9559,-53.89026 4.1787,-108.21892 -3.3559,-161.80517 -1.1219,-2.99 -2.6568,-5.81627 -4.459,-8.44922 16.9238,-24.30581 8.3473,-63.61059 -19.5957,-75.69335 -5.7871,-2.54535 -12.1369,-3.76626 -18.4531,-3.6504 z"
           style="font-style:normal;font-variant:normal;font-weight:normal;font-stretch:normal;font-size:medium;line-height:125%;font-family:Quicksand;-inkscape-font-specification:Quicksand;letter-spacing:0px;word-spacing:0px;fill:#f7f7f7;fill-opacity:1;stroke:none;stroke-width:1.18228471px;stroke-linecap:butt;stroke-linejoin:miter;stroke-opacity:1" />
        <path
           inkscape:connector-curvature="0"
           id="path3410-2-0-9-3-6-9-3"
           d="m -1013.7227,255.74609 c -65.7037,-1.19393 -124.3831,60.78499 -120.414,126.2168 0.4679,55.16039 43.755,106.81784 98.0957,116.60742 -11.7151,1.44901 -24.8141,1.93791 -34.0879,10.41211 -17.2944,13.58107 -23.7635,40.74552 -10.7734,59.36719 10.4121,17.25249 32.4983,25.11975 51.7928,20.58721 57.01734,-5.50697 105.52903,-50.3769 121.75598,-104.36455 18.19012,-49.8987 22.32637,-106.4087 4.22319,-156.93589 -19.13697,-42.24033 -63.67969,-72.96146 -110.59237,-71.89029 z m 0.6582,90.07813 c 24.75514,-0.26021 41.22297,34.07575 24.25981,52.68945 -11.87961,15.37547 -39.45661,15.92766 -49.69141,-1.58984 -11.7383,-16.42495 -4.4516,-43.59881 15.7773,-49.39844 3.0935,-1.09787 6.3688,-1.70326 9.6543,-1.70117 z"
           style="font-style:normal;font-variant:normal;font-weight:normal;font-stretch:normal;font-size:medium;line-height:125%;font-family:Quicksand;-inkscape-font-specification:Quicksand;letter-spacing:0px;word-spacing:0px;fill:#f7f7f7;fill-opacity:1;stroke:none;stroke-width:1.18228471px;stroke-linecap:butt;stroke-linejoin:miter;stroke-opacity:1" />
        <path
           inkscape:connector-curvature="0"
           id="path3412-7-7-7-5-2-2-5"
           d="m -726.75195,257.11328 c -51.12514,2.12733 -102.6664,-3.07007 -153.65039,3.24024 -29.82102,10.11867 -37.7632,54.89254 -14.10938,75.25586 16.70211,14.25962 40.2764,12.5802 60.74754,11.42554 13.2668,-0.2567 26.53009,0.30826 39.79543,0.41039 -26.16552,64.31162 -54.91786,127.69979 -77.67187,193.31055 -4.32585,32.0264 34.32306,59.44551 63.25585,45.47656 19.51178,-9.42586 27.23483,-31.43567 33.97532,-50.48053 30.54133,-76.27435 64.8542,-151.12558 92.17507,-228.68353 4.06675,-25.40866 -18.8979,-50.94252 -44.51757,-49.95508 z"
           style="font-style:normal;font-variant:normal;font-weight:normal;font-stretch:normal;font-size:medium;line-height:125%;font-family:Quicksand;-inkscape-font-specification:Quicksand;letter-spacing:0px;word-spacing:0px;fill:#f7f7f7;fill-opacity:1;stroke:none;stroke-width:1.18228471px;stroke-linecap:butt;stroke-linejoin:miter;stroke-opacity:1" />
        <path
           style="opacity:1;fill:#ffffff;fill-opacity:1;fill-rule:evenodd;stroke:#f7f7f7;stroke-width:113.11739349;stroke-linecap:round;stroke-linejoin:miter;stroke-miterlimit:4;stroke-dasharray:none;stroke-opacity:1"
           d="m -2988.8219,302.34903 90.9889,226.84427"
           id="path3367-6-6-2-6"
           inkscape:connector-curvature="0" />
        <path
           style="display:inline;opacity:1;fill:#ffffff;fill-opacity:1;fill-rule:evenodd;stroke:#f7f7f7;stroke-width:113.11739349;stroke-linecap:round;stroke-linejoin:miter;stroke-miterlimit:4;stroke-dasharray:none;stroke-opacity:1"
           d="m -2060.4611,302.40443 -93.7014,226.77817"
           id="path3367-3-2-1-8-2"
           inkscape:connector-curvature="0" />
        <path
           style="fill:none;fill-rule:evenodd;stroke:#f7f7f7;stroke-width:113.11739349;stroke-linecap:round;stroke-linejoin:miter;stroke-miterlimit:4;stroke-dasharray:none;stroke-opacity:1"
           d="m -2814.5107,301.25573 c -60.1315,76.36769 -47.8561,187.83879 0.1248,240.75067"
           id="path4184-9-8-9-9"
           inkscape:connector-curvature="0" />
        <path
           style="display:inline;fill:none;fill-rule:evenodd;stroke:#f7f7f7;stroke-width:113.11739349;stroke-linecap:round;stroke-linejoin:miter;stroke-miterlimit:4;stroke-dasharray:none;stroke-opacity:1"
           d="m -2235.6623,301.26353 c 60.1315,76.36769 47.8561,187.83869 -0.1248,240.75057"
           id="path4184-6-1-7-7-1"
           inkscape:connector-curvature="0" />
        <path
           style="fill:none;fill-rule:evenodd;stroke:#f7f7f7;stroke-width:84.83805847;stroke-linecap:round;stroke-linejoin:miter;stroke-miterlimit:4;stroke-dasharray:none;stroke-opacity:1"
           d="m -2754.2232,352.43783 c 5.0163,83.01399 132.4228,81.0074 134.7277,-0.22061"
           id="path4201-2-9-3-2"
           inkscape:connector-curvature="0" />
        <path
           style="display:inline;fill:none;fill-rule:evenodd;stroke:#f7f7f7;stroke-width:84.83805847;stroke-linecap:round;stroke-linejoin:miter;stroke-miterlimit:4;stroke-dasharray:none;stroke-opacity:1"
           d="m -2421.9926,352.39983 c 5.0163,83.014 132.4228,81.00739 134.7276,-0.2206"
           id="path4201-7-7-2-6-7"
           inkscape:connector-curvature="0" />
        <path
           style="fill:none;fill-rule:evenodd;stroke:#f7f7f7;stroke-width:84.83805847;stroke-linecap:round;stroke-linejoin:miter;stroke-miterlimit:4;stroke-dasharray:none;stroke-opacity:1"
           d="m -2507.3875,447.46723 c 2.8468,28.9815 24.4027,34.61029 37.1265,34.2147 12.8515,-0.39941 30.2749,-7.31471 33.3924,-34.2423"
           id="path4241-0-0-1-0"
           inkscape:connector-curvature="0" />
      </g>
      <path
         inkscape:connector-curvature="0"
         id="path3402-6-7-7-3-9-2"
         d="m 1566.0057,406.77158 c -22.1852,0.45434 -38.3261,24.74283 -33.3598,45.65817 0.6963,81.19489 -1.7075,162.4446 1.4223,243.59961 5.3912,22.6332 36.1766,31.1624 54.2618,18.1153 13.9398,-9.9621 15.6703,-29.0086 14.1914,-44.7442 -0.3371,-6.9205 -2.3581,-16.074 4.941,-20.2131 3.2441,-4.6393 5.8656,-3.4141 8.303,1.2258 17.9845,22.8136 35.0719,46.799 56.9083,66.1475 21.3293,13.9364 52.6845,-6.461 51.4121,-31.1641 -0.5774,-13.4064 -10.2081,-24.0501 -17.8622,-34.2677 -11.1299,-12.7187 -21.84,-25.61433 -31.8979,-39.16695 -4.6171,-5.73988 -9.2342,-11.47976 -13.8512,-17.21963 21.3114,-22.43566 46.1845,-42.32297 62.4179,-69.10938 8.0728,-24.4421 -18.8534,-51.36231 -43.3046,-43.67578 -16.2082,8.55849 -27.9865,23.38746 -41.3534,35.60377 -12.1576,12.34049 -23.8896,25.0872 -35.924,37.54662 0.3956,-41.56065 1.4276,-83.24324 -1.7129,-124.70898 -4.8538,-14.19775 -19.5684,-24.35851 -34.5918,-23.62695 z"
         style="font-style:normal;font-variant:normal;font-weight:normal;font-stretch:normal;font-size:medium;line-height:125%;font-family:Quicksand;-inkscape-font-specification:Quicksand;letter-spacing:0px;word-spacing:0px;fill:#e5e5e5;fill-opacity:1;stroke:none;stroke-width:1.18228471px;stroke-linecap:butt;stroke-linejoin:miter;stroke-opacity:1" />
      <path
         inkscape:connector-curvature="0"
         id="path3404-2-4-1-6-3-3"
         d="m 1848.5487,407.8829 c -19.2436,0.04 -34.151,17.62113 -37.1406,35.58985 -28.5694,80.37236 -60.4342,159.64889 -86.5606,240.88871 -2.9262,27.0779 33.4418,47.0491 54.8535,30.4082 16.0007,-12.7987 18.438,-34.7656 25.8106,-52.4766 2.0953,-3.8045 1.7233,-11.3204 7.6494,-9.4116 25.6304,0.349 51.266,-0.1809 76.8994,0.068 8.028,21.4185 12.5441,45.9319 29.6602,62.4532 20.2289,14.2939 53.2376,-1.5762 53.8594,-26.5762 -1.8642,-26.1975 -16.8722,-48.9003 -23.6681,-73.69625 -24.1746,-64.96305 -45.9096,-130.92984 -73.0878,-194.72562 -6.7051,-8.40708 -17.6662,-12.74034 -28.2754,-12.52149 z m 15.4766,174.73633 c -9.6621,0 -19.3243,0 -28.9864,0 4.849,-13.12304 9.698,-26.24609 14.5469,-39.36914 4.8132,13.12305 9.6263,26.24609 14.4395,39.36914 z"
         style="font-style:normal;font-variant:normal;font-weight:normal;font-stretch:normal;font-size:medium;line-height:125%;font-family:Quicksand;-inkscape-font-specification:Quicksand;letter-spacing:0px;word-spacing:0px;fill:#e5e5e5;fill-opacity:1;stroke:none;stroke-width:1.18228471px;stroke-linecap:butt;stroke-linejoin:miter;stroke-opacity:1" />
      <path
         inkscape:connector-curvature="0"
         id="path3406-9-4-1-7-6-7"
         d="m 2065.5585,485.18173 c -53.5572,0.73424 -100.8864,46.04418 -107.9004,98.47461 -8.6936,52.09572 20.3479,109.71392 70.0937,129.58402 48.9895,20.5845 111.2631,-2.6537 135.1282,-50.061 27.4184,-48.03072 17.7199,-115.42826 -25.3948,-151.13776 -19.7148,-17.17305 -45.6127,-27.64885 -71.9267,-26.85987 z m 1.1816,69.6836 c 27.1685,0.54809 46.817,30.15644 41.7109,55.77343 -2.7862,21.46727 -22.1432,42.317 -44.9492,39.9141 -23.674,-2.9068 -40.4451,-28.07066 -37.6133,-51.19925 1.4427,-21.06949 17.4937,-44.49036 40.8516,-44.48828 z"
         style="font-style:normal;font-variant:normal;font-weight:normal;font-stretch:normal;font-size:medium;line-height:125%;font-family:Quicksand;-inkscape-font-specification:Quicksand;letter-spacing:0px;word-spacing:0px;fill:#e5e5e5;fill-opacity:1;stroke:none;stroke-width:1.18228471px;stroke-linecap:butt;stroke-linejoin:miter;stroke-opacity:1" />
      <path
         inkscape:connector-curvature="0"
         id="path3408-1-3-5-5-0-5"
         d="m 2228.5741,425.40048 c -22.6826,0.17032 -38.6777,24.88557 -34.5918,46.10352 0.2964,9.06614 5.6511,17.00738 11.5449,23.50976 -11.2588,10.61937 -13.0725,27.32784 -10.8465,41.86513 0.5901,53.49106 -2.0658,107.08877 1.7391,160.49817 7.1824,25.8938 47.5804,31.1577 61.6406,8.5215 11.2987,-18.8877 4.7094,-41.6769 6.0003,-62.2578 0.2739,-44.37509 2.0404,-88.89412 -1.3948,-133.17192 -0.9876,-6.12751 -5.1761,-11.65967 -8.9649,-15.82226 18.3805,-18.29137 14.3748,-54.63996 -9.8144,-66.00586 -4.7496,-2.2832 -10.0521,-3.35096 -15.3125,-3.24024 z"
         style="font-style:normal;font-variant:normal;font-weight:normal;font-stretch:normal;font-size:medium;line-height:125%;font-family:Quicksand;-inkscape-font-specification:Quicksand;letter-spacing:0px;word-spacing:0px;fill:#e5e5e5;fill-opacity:1;stroke:none;stroke-width:1.18228471px;stroke-linecap:butt;stroke-linejoin:miter;stroke-opacity:1" />
      <path
         inkscape:connector-curvature="0"
         id="path3410-2-0-9-3-6-9"
         d="m 2396.5858,406.62509 c -59.8836,-0.98545 -113.2421,55.1652 -110.3242,114.76367 -0.028,53.51204 43.9059,104.45461 97.7578,109.20508 8.3325,0.92936 16.9326,0.99985 25.3379,0.125 -11.1975,12.46562 -27.7492,20.09382 -44.4727,19.61912 -17.0826,2.2734 -33.2849,17.175 -32.0898,35.2949 -0.035,19.3508 18.134,37.7337 37.9452,34.7586 52.7938,-0.5151 100.616,-38.7363 118.6114,-87.42457 20.3444,-47.74384 25.5223,-102.46123 11.9375,-152.72071 -15.5269,-42.64409 -58.7902,-74.7469 -104.7031,-73.62109 z m 2.8301,70.13672 c 28.9433,1.32919 49.494,38.06048 33.8652,63.00586 -11.1902,20.68516 -42.1242,28.99864 -60.6035,13.07422 -19.4536,-14.64544 -22.6577,-47.11335 -4.0547,-63.8711 8.0068,-8.08809 19.3594,-12.85764 30.793,-12.20898 z"
         style="font-style:normal;font-variant:normal;font-weight:normal;font-stretch:normal;font-size:medium;line-height:125%;font-family:Quicksand;-inkscape-font-specification:Quicksand;letter-spacing:0px;word-spacing:0px;fill:#e5e5e5;fill-opacity:1;stroke:none;stroke-width:1.18228471px;stroke-linecap:butt;stroke-linejoin:miter;stroke-opacity:1" />
      <path
         inkscape:connector-curvature="0"
         id="path3412-7-7-7-5-2-2"
         d="m 2683.8905,407.99228 c -49.8084,1.81261 -99.9037,-2.27934 -149.6504,2.3789 -26.2025,7.89781 -30.2904,49.76814 -6.1543,62.61133 20.0974,9.9525 43.069,3.42698 64.3984,4.9961 12.9819,0.1967 25.9734,0.69724 38.9532,0.14648 -27.5775,67.56067 -57.2933,134.80968 -82.545,203.48827 -4.2695,25.0779 25.8546,46.7653 48.6133,36.5781 17.1861,-8.3235 22.8849,-28.2521 28.8303,-44.8329 30.6829,-74.37345 62.7845,-148.34753 91.1771,-223.56376 4.8963,-16.03052 -6.4823,-33.62878 -21.3316,-39.64041 -3.8911,-1.55296 -8.1004,-2.32456 -12.291,-2.16211 z"
         style="font-style:normal;font-variant:normal;font-weight:normal;font-stretch:normal;font-size:medium;line-height:125%;font-family:Quicksand;-inkscape-font-specification:Quicksand;letter-spacing:0px;word-spacing:0px;fill:#e5e5e5;fill-opacity:1;stroke:none;stroke-width:1.18228471px;stroke-linecap:butt;stroke-linejoin:miter;stroke-opacity:1" />
      <path
         inkscape:connector-curvature="0"
         id="path3367-6-6-2"
         d="m 421.58903,443.22878 90.98882,226.84428"
         style="opacity:1;fill:#ffffff;fill-opacity:1;fill-rule:evenodd;stroke:#e5e5e5;stroke-width:92.51369476;stroke-linecap:round;stroke-linejoin:miter;stroke-miterlimit:4;stroke-dasharray:none;stroke-opacity:1" />
      <path
         inkscape:connector-curvature="0"
         id="path3367-3-2-1-8"
         d="m 1349.9498,443.28418 -93.7014,226.77818"
         style="display:inline;opacity:1;fill:#ffffff;fill-opacity:1;fill-rule:evenodd;stroke:#e5e5e5;stroke-width:92.51369476;stroke-linecap:round;stroke-linejoin:miter;stroke-miterlimit:4;stroke-dasharray:none;stroke-opacity:1" />
      <path
         inkscape:connector-curvature="0"
         id="path4184-9-8-9"
         d="m 595.90015,442.13548 c -60.1315,76.3677 -47.8561,187.8388 0.1248,240.75068"
         style="fill:none;fill-rule:evenodd;stroke:#e5e5e5;stroke-width:92.51369476;stroke-linecap:round;stroke-linejoin:miter;stroke-miterlimit:4;stroke-dasharray:none;stroke-opacity:1" />
      <path
         inkscape:connector-curvature="0"
         id="path4184-6-1-7-7"
         d="m 1174.7486,442.14328 c 60.1315,76.3677 47.8561,187.8387 -0.1248,240.75058"
         style="display:inline;fill:none;fill-rule:evenodd;stroke:#e5e5e5;stroke-width:92.51369476;stroke-linecap:round;stroke-linejoin:miter;stroke-miterlimit:4;stroke-dasharray:none;stroke-opacity:1" />
      <path
         inkscape:connector-curvature="0"
         id="path4201-2-9-3"
         d="m 656.18774,493.31758 c 5.0163,83.014 132.4228,81.0074 134.7277,-0.2206"
         style="fill:none;fill-rule:evenodd;stroke:#e5e5e5;stroke-width:69.38526917;stroke-linecap:round;stroke-linejoin:miter;stroke-miterlimit:4;stroke-dasharray:none;stroke-opacity:1" />
      <path
         inkscape:connector-curvature="0"
         id="path4201-7-7-2-6"
         d="m 988.41831,493.27958 c 5.0163,83.014 132.42279,81.0074 134.72759,-0.2206"
         style="display:inline;fill:none;fill-rule:evenodd;stroke:#e5e5e5;stroke-width:69.38526917;stroke-linecap:round;stroke-linejoin:miter;stroke-miterlimit:4;stroke-dasharray:none;stroke-opacity:1" />
      <path
         inkscape:connector-curvature="0"
         id="path4241-0-0-1"
         d="m 903.02335,588.34698 c 2.8468,28.9815 24.40279,34.6103 37.1265,34.2147 12.85153,-0.3994 30.27495,-7.3147 33.39246,-34.2423"
         style="fill:none;fill-rule:evenodd;stroke:#e5e5e5;stroke-width:69.38526917;stroke-linecap:round;stroke-linejoin:miter;stroke-miterlimit:4;stroke-dasharray:none;stroke-opacity:1" />
      <g
         id="g988"
         transform="translate(27.6167,478.53444)">
        <path
           inkscape:connector-curvature="0"
           style="font-style:normal;font-variant:normal;font-weight:normal;font-stretch:normal;font-size:medium;line-height:125%;font-family:Quicksand;-inkscape-font-specification:Quicksand;letter-spacing:0px;word-spacing:0px;fill:#c8c8c8;fill-opacity:1;stroke:none;stroke-width:1.18228471px;stroke-linecap:butt;stroke-linejoin:miter;stroke-opacity:1"
           d="m 1539.3927,-59.76621 c -14.9398,-0.19419 -25.7099,16.42173 -22.3886,30.30859 0.6101,81.29973 -1.3166,162.64483 1.0546,243.91406 4.6666,18.71792 35.2699,20.96838 42.289,2.83103 5.398,-12.6634 1.342,-26.6665 2.3614,-39.85837 -1.184,-5.35238 2.0107,-10.06946 6.3478,-12.74811 5.1881,-5.30401 10.3762,-10.60803 15.5643,-15.91205 21.9378,26.35982 41.7837,54.60691 65.9493,79.01954 15.612,9.40976 38.5009,-7.52545 33.1855,-25.24024 -6.0832,-16.32007 -20.7822,-27.04589 -30.099,-41.33549 -12.2424,-15.2189 -24.4848,-30.4378 -36.7272,-45.6567 22.0554,-23.5544 46.9288,-44.67163 66.3438,-70.57226 7.0721,-17.44225 -14.7286,-37.78272 -31.4688,-28.50391 -31.5498,27.69221 -59.0594,59.79223 -89.1035,89.03516 0.04,-49.81569 1.3597,-99.75476 -0.9902,-149.52735 -3.1353,-9.2309 -12.5287,-15.99499 -22.3184,-15.7539 z"
           id="path3402-6-7-7-3-9" />
        <path
           inkscape:connector-curvature="0"
           style="font-style:normal;font-variant:normal;font-weight:normal;font-stretch:normal;font-size:medium;line-height:125%;font-family:Quicksand;-inkscape-font-specification:Quicksand;letter-spacing:0px;word-spacing:0px;fill:#c8c8c8;fill-opacity:1;stroke:none;stroke-width:1.18228471px;stroke-linecap:butt;stroke-linejoin:miter;stroke-opacity:1"
           d="m 1821.0294,-58.65098 c -13.8038,-0.11549 -23.0143,13.45985 -25.291,25.8125 -28.5612,79.93276 -59.7287,159.04112 -86.5429,239.61133 -1.7093,18.66499 24.7964,31.17837 38.1015,17.96484 11.3371,-12.70021 12.4389,-30.63617 19.7748,-45.44098 2.6111,-5.32554 3.5014,-13.11645 7.2018,-16.88128 32.1198,0 64.2396,0 96.3594,0 8.5957,20.9252 12.9622,44.25164 26.248,62.98047 13.2032,11.56903 38.2504,0.65732 37.0449,-17.39453 -1.5318,-16.94973 -11.2623,-31.45875 -15.594,-47.54533 -26.1944,-70.28885 -50.3325,-141.40283 -78.3903,-210.95663 -4.46,-5.64511 -11.866,-8.30343 -18.9122,-8.15039 z m 32.5586,174.73633 c -21.1315,0 -42.263,0 -63.3945,0 10.6035,-28.70443 21.207,-57.40885 31.8106,-86.11328 10.528,28.70443 21.0559,57.40885 31.5839,86.11328 z"
           id="path3404-2-4-1-6-3" />
        <path
           inkscape:connector-curvature="0"
           style="font-style:normal;font-variant:normal;font-weight:normal;font-stretch:normal;font-size:medium;line-height:125%;font-family:Quicksand;-inkscape-font-specification:Quicksand;letter-spacing:0px;word-spacing:0px;fill:#c8c8c8;fill-opacity:1;stroke:none;stroke-width:1.18228471px;stroke-linecap:butt;stroke-linejoin:miter;stroke-opacity:1"
           d="m 2039.2501,18.66543 c -45.7148,-0.19469 -86.1259,36.70468 -95.7661,80.4079 -11.3046,47.1824 11.8315,102.04912 56.7466,122.58429 37.6264,17.71654 86.488,7.00382 112.4837,-25.72143 33.1655,-38.20683 35.1683,-100.23071 2.6114,-139.45203 -18.1338,-22.89031 -46.4916,-38.44785 -76.0756,-37.81873 z m -0.621,45.63476 c 30.7355,-0.47691 55.2642,29.62806 54.6636,59.17927 0.6969,27.56892 -18.8408,56.41733 -47.2535,60.33245 -24.758,3.55665 -48.98,-14.41557 -56.1758,-37.74219 -10.4202,-28.96825 2.293,-66.37462 31.9805,-78.26953 5.3132,-2.19674 11.031,-3.43079 16.7852,-3.5 z"
           id="path3406-9-4-1-7-6" />
        <path
           inkscape:connector-curvature="0"
           style="font-style:normal;font-variant:normal;font-weight:normal;font-stretch:normal;font-size:medium;line-height:125%;font-family:Quicksand;-inkscape-font-specification:Quicksand;letter-spacing:0px;word-spacing:0px;fill:#c8c8c8;fill-opacity:1;stroke:none;stroke-width:1.18228471px;stroke-linecap:butt;stroke-linejoin:miter;stroke-opacity:1"
           d="m 2201.8322,-41.11778 c -15.2996,-0.45761 -25.7315,16.25057 -23.3828,30.32618 -1.1008,15.9722 17.4103,30.99268 32.4355,23.16601 17.5356,-8.50158 19.6132,-36.02449 5.1738,-48.30664 -3.9722,-3.26168 -9.053,-5.2729 -14.2265,-5.18555 z m -0.4297,59.89454 c -14.9604,-0.21284 -25.7879,16.41772 -22.4395,30.33203 0.7423,55.38027 -1.6214,110.84362 1.2969,166.16797 5.258,17.64218 33.8707,19.83146 41.5684,3.02929 6.5672,-14.68868 1.1573,-31.02427 2.9566,-46.22066 -0.3501,-45.90301 1.3643,-91.88678 -1.0914,-137.73441 -2.9821,-9.30845 -12.5643,-15.87743 -22.291,-15.57422 z"
           id="path3408-1-3-5-5-0" />
        <path
           inkscape:connector-curvature="0"
           style="font-style:normal;font-variant:normal;font-weight:normal;font-stretch:normal;font-size:medium;line-height:125%;font-family:Quicksand;-inkscape-font-specification:Quicksand;letter-spacing:0px;word-spacing:0px;fill:#c8c8c8;fill-opacity:1;stroke:none;stroke-width:1.18228471px;stroke-linecap:butt;stroke-linejoin:miter;stroke-opacity:1"
           d="m 2366.7541,-59.83067 c -52.4711,0.38295 -98.5597,49.8256 -95.9307,102.11329 -0.2376,46.89432 36.974,92.0484 84.1797,97.45296 17.7375,2.65803 36.3232,0.42614 52.8486,-6.24593 -10.7503,23.97451 -31.9339,46.92358 -59.5894,49.30954 -10.875,0.8135 -24.6995,3.16103 -29.1528,14.72561 -5.7073,13.26185 3.208,32.19223 18.7003,32.26781 45.559,1.99583 88.6556,-28.06771 107.5575,-68.71507 22.5858,-43.82676 28.1269,-95.21778 20.4516,-143.54575 -9.942,-44.54018 -52.9399,-79.61925 -99.0648,-77.36246 z m 3.8847,46.33594 c 33.6339,-0.40052 60.4797,37.14486 50.1426,68.96094 -7.4516,28.23996 -41.0924,47.44317 -68.7832,36.08594 -25.3397,-8.99297 -41.3431,-38.74219 -33.6875,-64.61719 5.7612,-23.13846 27.9746,-41.81702 52.3281,-40.42969 z"
           id="path3410-2-0-9-3-6" />
        <path
           inkscape:connector-curvature="0"
           style="font-style:normal;font-variant:normal;font-weight:normal;font-stretch:normal;font-size:medium;line-height:125%;font-family:Quicksand;-inkscape-font-specification:Quicksand;letter-spacing:0px;word-spacing:0px;fill:#c8c8c8;fill-opacity:1;stroke:none;stroke-width:1.18228471px;stroke-linecap:butt;stroke-linejoin:miter;stroke-opacity:1"
           d="m 2656.4845,-58.5416 c -48.6588,1.57394 -97.4409,-1.68982 -146.0293,1.75195 -17.9123,5.76245 -19.1117,35.33329 -1.4883,42.24219 15.8572,5.22859 32.7707,0.58426 48.8497,2.26953 21.2636,0 42.5273,0 63.791,0 -29.3677,72.37207 -60.7699,143.96873 -88.4473,217.01172 -2.7448,18.3544 22.4213,33.45787 36.7129,20.80078 11.9792,-10.64135 13.0373,-27.80786 20.5497,-41.15991 29.3988,-72.42538 60.3642,-144.29698 88.6007,-217.13697 1.398,-12.76965 -9.2967,-26.1675 -22.5391,-25.77929 z"
           id="path3412-7-7-7-5-2" />
        <path
           inkscape:connector-curvature="0"
           style="opacity:1;fill:#ffffff;fill-opacity:1;fill-rule:evenodd;stroke:#c8c8c8;stroke-width:52.63001633;stroke-linecap:round;stroke-linejoin:miter;stroke-miterlimit:4;stroke-dasharray:none;stroke-opacity:1"
           d="m 393.97242,-35.30574 90.9888,226.84436"
           id="path3367-6-6" />
        <path
           inkscape:connector-curvature="0"
           style="display:inline;opacity:1;fill:#ffffff;fill-opacity:1;fill-rule:evenodd;stroke:#c8c8c8;stroke-width:52.63001633;stroke-linecap:round;stroke-linejoin:miter;stroke-miterlimit:4;stroke-dasharray:none;stroke-opacity:1"
           d="m 1322.3331,-35.25033 -93.7014,226.77824"
           id="path3367-3-2-1" />
        <path
           inkscape:connector-curvature="0"
           style="fill:none;fill-rule:evenodd;stroke:#c8c8c8;stroke-width:52.63001633;stroke-linecap:round;stroke-linejoin:miter;stroke-miterlimit:4;stroke-dasharray:none;stroke-opacity:1"
           d="m 568.28352,-36.39897 c -60.1315,76.3677 -47.8561,187.83877 0.1248,240.75068"
           id="path4184-9-8" />
        <path
           inkscape:connector-curvature="0"
           style="display:inline;fill:none;fill-rule:evenodd;stroke:#c8c8c8;stroke-width:52.63001633;stroke-linecap:round;stroke-linejoin:miter;stroke-miterlimit:4;stroke-dasharray:none;stroke-opacity:1"
           d="m 1147.1319,-36.39123 c 60.1315,76.3677 47.8561,187.83878 -0.1248,240.75065"
           id="path4184-6-1-7" />
        <path
           inkscape:connector-curvature="0"
           style="fill:none;fill-rule:evenodd;stroke:#c8c8c8;stroke-width:39.47251129;stroke-linecap:round;stroke-linejoin:miter;stroke-miterlimit:4;stroke-dasharray:none;stroke-opacity:1"
           d="m 628.57112,14.78307 c 5.0163,83.01402 132.4228,81.00746 134.7277,-0.22053"
           id="path4201-2-9" />
        <path
           inkscape:connector-curvature="0"
           style="display:inline;fill:none;fill-rule:evenodd;stroke:#c8c8c8;stroke-width:39.47251129;stroke-linecap:round;stroke-linejoin:miter;stroke-miterlimit:4;stroke-dasharray:none;stroke-opacity:1"
           d="m 960.80165,14.74507 c 5.0163,83.01404 132.42275,81.00744 134.72755,-0.22053"
           id="path4201-7-7-2" />
        <path
           inkscape:connector-curvature="0"
           style="fill:none;fill-rule:evenodd;stroke:#c8c8c8;stroke-width:39.47251129;stroke-linecap:round;stroke-linejoin:miter;stroke-miterlimit:4;stroke-dasharray:none;stroke-opacity:1"
           d="m 875.40672,109.81252 c 2.8468,28.9815 24.4028,34.61024 37.1265,34.21472 12.85153,-0.39948 30.27493,-7.31476 33.39243,-34.24236"
           id="path4241-0-0" />
      </g>
      <g
         id="g1451-2"
         transform="translate(-55.45521,931.71661)">
        <path
           inkscape:connector-curvature="0"
           d="m 1614.0677,-246.03686 v -243.89642 q 0,-3.7407 2.5611,-6.35915 2.5609,-2.61854 6.2193,-2.61854 3.6585,0 6.2195,2.61854 2.9268,2.61845 2.9268,6.35915 v 176.18904 l 106.096,-108.10741 q 6.2195,-6.35933 12.4389,0 2.9268,2.61846 2.9268,6.35924 0,3.36664 -2.9268,6.35914 l -69.1454,70.70018 69.5112,86.41113 q 5.4878,6.7333 -0.7319,13.0925 -2.1952,1.8704 -5.8536,1.8704 -5.1219,0 -6.951,-3.3667 l -68.7797,-84.91481 -36.5848,37.40741 v 41.8963 q 0,3.7408 -2.9268,6.3592 -2.5609,2.6186 -6.2195,2.6186 -3.6584,0 -6.2194,-2.6186 -2.5609,-2.6184 -2.5609,-6.3592 z"
           style="font-style:normal;font-variant:normal;font-weight:normal;font-stretch:normal;font-size:medium;line-height:125%;font-family:Quicksand;-inkscape-font-specification:Quicksand;letter-spacing:0px;word-spacing:0px;fill:#000000;fill-opacity:1;stroke:none;stroke-width:1.18228471px;stroke-linecap:butt;stroke-linejoin:miter;stroke-opacity:1"
           id="path3402-6-7-7-3-93" />
        <path
           inkscape:connector-curvature="0"
           d="m 1985.97,-243.04426 -22.6825,-61.72221 h -116.7058 l -22.6826,61.72221 q -2.195,5.9852 -8.4145,5.9852 -0.366,0 -1.4634,0 -1.0975,-0.3741 -1.8293,-0.3741 -3.2926,-1.4963 -5.1218,-4.8629 -1.4635,-3.7408 0,-7.1073 l 88.9012,-242.77432 q 2.5609,-5.61104 8.7803,-5.61104 6.9512,0 8.7804,5.61104 l 88.9011,242.77432 q 1.4634,3.3665 0,7.1073 -1.4633,3.3666 -4.7559,4.8629 -0.7319,0 -1.8291,0.3741 -1.0978,0 -1.4635,0 -6.2195,0 -8.4146,-5.9852 z m -80.8524,-220.70379 -51.9505,140.6519 h 103.535 z"
           style="font-style:normal;font-variant:normal;font-weight:normal;font-stretch:normal;font-size:medium;line-height:125%;font-family:Quicksand;-inkscape-font-specification:Quicksand;letter-spacing:0px;word-spacing:0px;fill:#000000;fill-opacity:1;stroke:none;stroke-width:1.18228471px;stroke-linecap:butt;stroke-linejoin:miter;stroke-opacity:1"
           id="path3404-2-4-1-6-1" />
        <path
           inkscape:connector-curvature="0"
           d="m 2062.8325,-263.99236 q -24.8776,-27.30744 -24.8776,-64.71494 0,-37.40733 24.8776,-64.34076 24.8777,-27.3073 59.9992,-27.3073 35.1214,0 59.9991,27.3073 24.8778,26.93343 24.8778,64.34076 0,37.4075 -24.8778,64.71494 -24.8777,26.9333 -59.9991,26.9333 -35.1215,0 -59.9992,-26.9333 z m -7.3171,-64.71494 q 0,30.30006 19.7561,51.99644 20.1215,21.6963 47.5602,21.6963 27.4386,0 47.1944,-21.6963 20.1216,-21.69638 20.1216,-51.99644 0,-30.67405 -20.1216,-52.37039 -19.7558,-21.69624 -47.1944,-21.69624 -27.4387,0 -47.5602,21.69624 -19.7561,21.69634 -19.7561,52.37039 z"
           style="font-style:normal;font-variant:normal;font-weight:normal;font-stretch:normal;font-size:medium;line-height:125%;font-family:Quicksand;-inkscape-font-specification:Quicksand;letter-spacing:0px;word-spacing:0px;fill:#000000;fill-opacity:1;stroke:none;stroke-width:1.18228471px;stroke-linecap:butt;stroke-linejoin:miter;stroke-opacity:1"
           id="path3406-9-4-1-7-9" />
        <path
           inkscape:connector-curvature="0"
           d="m 2276.0186,-246.03686 v -165.34071 q 0,-3.74079 2.5609,-6.35934 2.561,-2.61845 6.2194,-2.61845 4.0245,0 6.5854,2.61845 2.5609,2.61855 2.5609,6.35934 v 165.34071 q 0,3.7408 -2.9267,6.3592 -2.561,2.6186 -6.2196,2.6186 -3.6584,0 -6.2194,-2.6186 -2.5609,-2.6184 -2.5609,-6.3592 z m 0,-216.58893 v -8.60374 q 0,-3.74079 2.5609,-6.35932 2.561,-2.61845 6.2194,-2.61845 3.6586,0 6.2196,2.61845 2.9267,2.61853 2.9267,6.35932 v 8.60374 q 0,4.11474 -2.9267,7.10733 -2.561,2.61854 -6.2196,2.61854 -3.6584,0 -6.2194,-2.61854 -2.5609,-2.99259 -2.5609,-7.10733 z"
           style="font-style:normal;font-variant:normal;font-weight:normal;font-stretch:normal;font-size:medium;line-height:125%;font-family:Quicksand;-inkscape-font-specification:Quicksand;letter-spacing:0px;word-spacing:0px;fill:#000000;fill-opacity:1;stroke:none;stroke-width:1.18228471px;stroke-linecap:butt;stroke-linejoin:miter;stroke-opacity:1"
           id="path3408-1-3-5-5-4" />
        <path
           inkscape:connector-curvature="0"
           d="m 2368.0416,-412.87387 q 0,-35.53715 24.8777,-60.60014 24.8777,-25.43696 59.6333,-25.43696 32.5605,0 56.3408,22.0703 24.146,21.69636 27.8045,54.24082 0.3658,0.37406 0.3658,1.12226 0,0.37405 0.3651,0.74809 0.732,14.21478 0.732,22.44444 0,60.22601 -24.5119,104.36671 -31.0972,54.61489 -89.6329,56.85929 h -0.366 q -4.0242,0 -6.5851,-2.2444 -2.5611,-2.6186 -2.5611,-6.3594 0,-8.9776 8.7804,-9.7257 48.292,-1.8705 74.6331,-47.50756 13.1705,-23.5667 18.2925,-52.37039 -24.5118,28.80369 -63.6577,28.80369 -35.1215,0 -59.9991,-25.06289 -24.5119,-25.43714 -24.5119,-61.34816 z m 84.511,68.08146 q 28.1703,0 47.5603,-19.82593 19.39,-19.82598 19.39,-48.25553 0,-28.05568 -19.7558,-47.88158 -19.3899,-19.826 -47.1945,-19.826 -27.4386,0 -47.1943,19.826 -19.3901,19.8259 -19.3901,47.88158 0,28.42955 19.3901,48.25553 19.7557,19.82593 47.1943,19.82593 z"
           style="font-style:normal;font-variant:normal;font-weight:normal;font-stretch:normal;font-size:medium;line-height:125%;font-family:Quicksand;-inkscape-font-specification:Quicksand;letter-spacing:0px;word-spacing:0px;fill:#000000;fill-opacity:1;stroke:none;stroke-width:1.18228471px;stroke-linecap:butt;stroke-linejoin:miter;stroke-opacity:1"
           id="path3410-2-0-9-3-7" />
        <path
           inkscape:connector-curvature="0"
           d="m 2635.9113,-237.80716 q -3.2925,-1.4963 -4.7559,-4.863 -1.4634,-3.7408 -0.366,-7.1075 l 94.7548,-229.68155 h -123.6567 q -3.6587,0 -6.2196,-2.61854 -2.561,-2.61854 -2.561,-6.35924 0,-3.74069 2.561,-6.35915 2.5609,-2.61853 6.2196,-2.61853 h 135.3638 q 2.9269,-0.74811 5.4877,0.37405 3.6586,1.87026 4.7562,5.61104 0.7319,2.24441 0.7319,2.99259 0,2.9926 -1.4634,4.86295 l -99.1449,240.90388 q -2.561,5.6111 -8.0488,5.6111 -2.1951,0 -3.6585,-0.7481 z"
           style="font-style:normal;font-variant:normal;font-weight:normal;font-stretch:normal;font-size:medium;line-height:125%;font-family:Quicksand;-inkscape-font-specification:Quicksand;letter-spacing:0px;word-spacing:0px;fill:#000000;fill-opacity:1;stroke:none;stroke-width:1.18228471px;stroke-linecap:butt;stroke-linejoin:miter;stroke-opacity:1"
           id="path3412-7-7-7-5-8" />
        <path
           inkscape:connector-curvature="0"
           style="opacity:1;fill:#ffffff;fill-opacity:1;fill-rule:evenodd;stroke:#000000;stroke-width:19.96042252;stroke-linecap:round;stroke-linejoin:miter;stroke-miterlimit:4;stroke-dasharray:none;stroke-opacity:1"
           d="m 477.04434,-488.48791 90.98878,226.84435"
           id="path3367-6-4" />
        <path
           inkscape:connector-curvature="0"
           style="display:inline;opacity:1;fill:#ffffff;fill-opacity:1;fill-rule:evenodd;stroke:#000000;stroke-width:19.96042252;stroke-linecap:round;stroke-linejoin:miter;stroke-miterlimit:4;stroke-dasharray:none;stroke-opacity:1"
           d="m 1405.405,-488.4325 -93.7014,226.77824"
           id="path3367-3-2-5" />
        <path
           inkscape:connector-curvature="0"
           style="fill:none;fill-rule:evenodd;stroke:#000000;stroke-width:19.96042252;stroke-linecap:round;stroke-linejoin:miter;stroke-miterlimit:4;stroke-dasharray:none;stroke-opacity:1"
           d="m 651.35543,-489.58114 c -60.13152,76.3677 -47.85611,187.83877 0.12475,240.75068"
           id="path4184-9-0" />
        <path
           inkscape:connector-curvature="0"
           style="display:inline;fill:none;fill-rule:evenodd;stroke:#000000;stroke-width:19.96042252;stroke-linecap:round;stroke-linejoin:miter;stroke-miterlimit:4;stroke-dasharray:none;stroke-opacity:1"
           d="m 1230.2038,-489.5734 c 60.1315,76.3677 47.8561,187.83877 -0.1248,240.75064"
           id="path4184-6-1-3" />
        <path
           inkscape:connector-curvature="0"
           style="fill:none;fill-rule:evenodd;stroke:#000000;stroke-width:14.97031689;stroke-linecap:round;stroke-linejoin:miter;stroke-miterlimit:4;stroke-dasharray:none;stroke-opacity:1"
           d="m 711.64304,-438.3991 c 5.01629,83.01402 132.42272,81.00745 134.72761,-0.22053"
           id="path4201-2-6" />
        <path
           inkscape:connector-curvature="0"
           style="display:inline;fill:none;fill-rule:evenodd;stroke:#000000;stroke-width:14.97031689;stroke-linecap:round;stroke-linejoin:miter;stroke-miterlimit:4;stroke-dasharray:none;stroke-opacity:1"
           d="m 1043.8735,-438.4371 c 5.0163,83.01403 132.4228,81.00744 134.7276,-0.22053"
           id="path4201-7-7-1" />
        <path
           inkscape:connector-curvature="0"
           style="fill:none;fill-rule:evenodd;stroke:#000000;stroke-width:14.97031689;stroke-linecap:round;stroke-linejoin:miter;stroke-miterlimit:4;stroke-dasharray:none;stroke-opacity:1"
           d="m 958.47862,-343.36966 c 2.84682,28.98151 24.40281,34.61024 37.12645,34.21473 12.85153,-0.39949 30.27493,-7.31476 33.39243,-34.24237"
           id="path4241-0-06" />
      </g>
    </g>
  </g>
</svg>
