<?xml version="1.0" encoding="UTF-8" standalone="no"?>
<svg
   xmlns:dc="http://purl.org/dc/elements/1.1/"
   xmlns:cc="http://creativecommons.org/ns#"
   xmlns:rdf="http://www.w3.org/1999/02/22-rdf-syntax-ns#"
   xmlns:svg="http://www.w3.org/2000/svg"
   xmlns="http://www.w3.org/2000/svg"
   width="3300"
   height="1200"
   viewBox="0 0 3093.7498 1125"
   id="svg2"
   version="1.1">
  <defs
     id="defs4" />
  <metadata
     id="metadata7">
    <rdf:RDF>
      <cc:Work
         rdf:about="">
        <dc:format>image/svg+xml</dc:format>
        <dc:type
           rdf:resource="http://purl.org/dc/dcmitype/StillImage" />
        <dc:title></dc:title>
      </cc:Work>
    </rdf:RDF>
  </metadata>
  <g
     transform="matrix(1,0,0,1.5868953,-0.59079276,-330.01688)"
     id="g184">
    <g
       id="g166">
      <path
         id="path3402-6-7-7"
         style="font-style:normal;font-variant:normal;font-weight:normal;font-stretch:normal;font-size:medium;line-height:125%;font-family:Quicksand;-inkscape-font-specification:Quicksand;letter-spacing:0px;word-spacing:0px;fill:#000000;fill-opacity:1;stroke:none;stroke-width:1.18228471px;stroke-linecap:butt;stroke-linejoin:miter;stroke-opacity:1"
         d="M 1553.9146,684.75888 V 440.86245 q 0,-3.7407 2.561,-6.35915 2.561,-2.61854 6.2194,-2.61854 3.6585,0 6.2195,2.61854 2.9268,2.61845 2.9268,6.35915 v 176.18904 l 106.096,-108.10741 q 6.2195,-6.35933 12.4389,0 2.9268,2.61846 2.9268,6.35924 0,3.36664 -2.9268,6.35914 l -69.1454,70.70019 69.5111,86.41114 q 5.4879,6.73329 -0.7318,13.09253 -2.1952,1.87035 -5.8536,1.87035 -5.1219,0 -6.951,-3.36665 l -68.7797,-84.91485 -36.5848,37.40741 v 41.8963 q 0,3.7408 -2.9268,6.35924 -2.5609,2.61855 -6.2195,2.61855 -3.6584,0 -6.2194,-2.61855 -2.5609,-2.61844 -2.5609,-6.35924 z" />
      <path
         id="path3404-2-4-1"
         style="font-style:normal;font-variant:normal;font-weight:normal;font-stretch:normal;font-size:medium;line-height:125%;font-family:Quicksand;-inkscape-font-specification:Quicksand;letter-spacing:0px;word-spacing:0px;fill:#000000;fill-opacity:1;stroke:none;stroke-width:1.18228471px;stroke-linecap:butt;stroke-linejoin:miter;stroke-opacity:1"
         d="m 1925.8169,687.75148 -22.6826,-61.72222 h -116.7057 l -22.6826,61.72222 q -2.1951,5.98519 -8.4145,5.98519 -0.366,0 -1.4634,0 -1.0975,-0.37405 -1.8293,-0.37405 -3.2926,-1.4963 -5.1219,-4.86294 -1.4634,-3.7408 0,-7.10735 l 88.9013,-242.77428 q 2.5609,-5.61104 8.7803,-5.61104 6.9512,0 8.7804,5.61104 l 88.9011,242.77428 q 1.4634,3.36655 0,7.10735 -1.4633,3.36664 -4.7559,4.86294 -0.7319,0 -1.8292,0.37405 -1.0977,0 -1.4634,0 -6.2195,0 -8.4146,-5.98519 z m -80.8525,-220.7038 -51.9504,140.6519 h 103.535 z" />
      <path
         id="path3406-9-4-1"
         style="font-style:normal;font-variant:normal;font-weight:normal;font-stretch:normal;font-size:medium;line-height:125%;font-family:Quicksand;-inkscape-font-specification:Quicksand;letter-spacing:0px;word-spacing:0px;fill:#000000;fill-opacity:1;stroke:none;stroke-width:1.18228471px;stroke-linecap:butt;stroke-linejoin:miter;stroke-opacity:1"
         d="m 2002.6794,666.80342 q -24.8776,-27.30748 -24.8776,-64.71498 0,-37.40734 24.8776,-64.34076 24.8777,-27.30731 59.9992,-27.30731 35.1214,0 59.9991,27.30731 24.8778,26.93342 24.8778,64.34076 0,37.4075 -24.8778,64.71498 -24.8777,26.93325 -59.9991,26.93325 -35.1215,0 -59.9992,-26.93325 z m -7.3171,-64.71498 q 0,30.30006 19.756,51.99641 20.1216,21.69634 47.5603,21.69634 27.4386,0 47.1944,-21.69634 20.1216,-21.69635 20.1216,-51.99641 0,-30.67405 -20.1216,-52.3704 -19.7558,-21.69624 -47.1944,-21.69624 -27.4387,0 -47.5603,21.69624 -19.756,21.69635 -19.756,52.3704 z" />
      <path
         id="path3408-1-3-5"
         style="font-style:normal;font-variant:normal;font-weight:normal;font-stretch:normal;font-size:medium;line-height:125%;font-family:Quicksand;-inkscape-font-specification:Quicksand;letter-spacing:0px;word-spacing:0px;fill:#000000;fill-opacity:1;stroke:none;stroke-width:1.18228471px;stroke-linecap:butt;stroke-linejoin:miter;stroke-opacity:1"
         d="M 2215.8655,684.75888 V 519.41816 q 0,-3.74079 2.5609,-6.35934 2.561,-2.61845 6.2194,-2.61845 4.0244,0 6.5854,2.61845 2.5609,2.61855 2.5609,6.35934 v 165.34072 q 0,3.7408 -2.9267,6.35924 -2.561,2.61855 -6.2196,2.61855 -3.6584,0 -6.2194,-2.61855 -2.5609,-2.61844 -2.5609,-6.35924 z m 0,-216.58894 v -8.60374 q 0,-3.74079 2.5609,-6.35932 2.561,-2.61845 6.2194,-2.61845 3.6586,0 6.2196,2.61845 2.9267,2.61853 2.9267,6.35932 v 8.60374 q 0,4.11474 -2.9267,7.10733 -2.561,2.61854 -6.2196,2.61854 -3.6584,0 -6.2194,-2.61854 -2.5609,-2.99259 -2.5609,-7.10733 z" />
      <path
         id="path3410-2-0-9"
         style="font-style:normal;font-variant:normal;font-weight:normal;font-stretch:normal;font-size:medium;line-height:125%;font-family:Quicksand;-inkscape-font-specification:Quicksand;letter-spacing:0px;word-spacing:0px;fill:#000000;fill-opacity:1;stroke:none;stroke-width:1.18228471px;stroke-linecap:butt;stroke-linejoin:miter;stroke-opacity:1"
         d="m 2307.8885,517.92186 q 0,-35.53715 24.8777,-60.60014 24.8777,-25.43696 59.6333,-25.43696 32.5605,0 56.3408,22.0703 24.146,21.69636 27.8045,54.24082 0.3658,0.37406 0.3658,1.12226 0,0.37405 0.3651,0.74809 0.732,14.21478 0.732,22.44445 0,60.22601 -24.5119,104.36671 -31.0972,54.61488 -89.6329,56.85928 h -0.366 q -4.0242,0 -6.5851,-2.2444 -2.5611,-2.61854 -2.5611,-6.35934 0,-8.97768 8.7804,-9.72578 48.292,-1.87045 74.633,-47.50754 13.1706,-23.56669 18.2926,-52.37038 -24.5118,28.80369 -63.6577,28.80369 -35.1215,0 -59.9991,-25.06289 -24.5119,-25.43714 -24.5119,-61.34817 z m 84.511,68.08146 q 28.1703,0 47.5603,-19.82592 19.39,-19.82599 19.39,-48.25554 0,-28.05568 -19.7558,-47.88158 -19.3899,-19.826 -47.1945,-19.826 -27.4386,0 -47.1944,19.826 -19.39,19.8259 -19.39,47.88158 0,28.42955 19.39,48.25554 19.7558,19.82592 47.1944,19.82592 z" />
      <path
         id="path3412-7-7-7"
         style="font-style:normal;font-variant:normal;font-weight:normal;font-stretch:normal;font-size:medium;line-height:125%;font-family:Quicksand;-inkscape-font-specification:Quicksand;letter-spacing:0px;word-spacing:0px;fill:#000000;fill-opacity:1;stroke:none;stroke-width:1.18228471px;stroke-linecap:butt;stroke-linejoin:miter;stroke-opacity:1"
         d="m 2575.7582,692.98857 q -3.2925,-1.4963 -4.7559,-4.86303 -1.4634,-3.74071 -0.366,-7.10744 l 94.7548,-229.68158 h -123.6567 q -3.6587,0 -6.2196,-2.61854 -2.561,-2.61854 -2.561,-6.35924 0,-3.74069 2.561,-6.35915 2.5609,-2.61853 6.2196,-2.61853 h 135.3638 q 2.9269,-0.74811 5.4877,0.37405 3.6586,1.87026 4.7562,5.61104 0.7319,2.24441 0.7319,2.99259 0,2.9926 -1.4634,4.86295 l -99.1449,240.90385 q -2.561,5.61113 -8.0488,5.61113 -2.1951,0 -3.6585,-0.7481 z" />
    </g>
    <g
       transform="matrix(0.99802112,0,0,0.99802112,3.0610836,1.1130484)"
       id="g1430">
      <path
         id="path3367"
         d="m 414.6507,442.06957 91.16919,227.2942"
         style="opacity:1;fill:#ffffff;fill-opacity:1;fill-rule:evenodd;stroke:#000000;stroke-width:20;stroke-linecap:round;stroke-linejoin:miter;stroke-miterlimit:4;stroke-dasharray:none;stroke-opacity:1" />
      <path
         id="path3367-3"
         d="m 1344.8521,442.12509 -93.8872,227.22792"
         style="display:inline;opacity:1;fill:#ffffff;fill-opacity:1;fill-rule:evenodd;stroke:#000000;stroke-width:20;stroke-linecap:round;stroke-linejoin:miter;stroke-miterlimit:4;stroke-dasharray:none;stroke-opacity:1" />
      <path
         id="path4184"
         d="m 589.30741,440.97418 c -60.25075,76.51912 -47.951,188.21122 0.125,241.22802"
         style="fill:none;fill-rule:evenodd;stroke:#000000;stroke-width:20;stroke-linecap:round;stroke-linejoin:miter;stroke-miterlimit:4;stroke-dasharray:none;stroke-opacity:1" />
      <path
         id="path4184-6"
         d="m 1169.3035,440.98193 c 60.2508,76.51912 47.951,188.21122 -0.125,241.22802"
         style="display:inline;fill:none;fill-rule:evenodd;stroke:#000000;stroke-width:20;stroke-linecap:round;stroke-linejoin:miter;stroke-miterlimit:4;stroke-dasharray:none;stroke-opacity:1" />
      <g
         id="g4243"
         transform="translate(780.28671,712.32327)">
        <path
           style="fill:none;fill-rule:evenodd;stroke:#000000;stroke-width:15;stroke-linecap:round;stroke-linejoin:miter;stroke-miterlimit:4;stroke-dasharray:none;stroke-opacity:1"
           d="m -130.57215,-220.06557 c 5.02624,83.17863 132.6852838,81.16807 134.9947449,-0.22097"
           id="path4201" />
        <path
           style="display:inline;fill:none;fill-rule:evenodd;stroke:#000000;stroke-width:15;stroke-linecap:round;stroke-linejoin:miter;stroke-miterlimit:4;stroke-dasharray:none;stroke-opacity:1"
           d="m 202.3171,-220.10365 c 5.02624,83.17863 132.68528,81.16807 134.99474,-0.22097"
           id="path4201-7" />
        <path
           style="fill:none;fill-rule:evenodd;stroke:#000000;stroke-width:15;stroke-linecap:round;stroke-linejoin:miter;stroke-miterlimit:4;stroke-dasharray:none;stroke-opacity:1"
           d="m 116.75286,-124.8477 c 2.85247,29.03898 24.45121,34.678871 37.20007,34.282568 12.87697,-0.400286 30.33495,-7.329264 33.45865,-34.310268"
           id="path4241" />
      </g>
    </g>
  </g>
</svg>
