<?xml version="1.0" encoding="UTF-8" standalone="no"?>
<svg
   xmlns:dc="http://purl.org/dc/elements/1.1/"
   xmlns:cc="http://creativecommons.org/ns#"
   xmlns:rdf="http://www.w3.org/1999/02/22-rdf-syntax-ns#"
   xmlns:svg="http://www.w3.org/2000/svg"
   xmlns="http://www.w3.org/2000/svg"
   width="32"
   height="32"
   viewBox="0 0 30 30.000002"
   id="svg2"
   version="1.1">
  <defs
     id="defs4" />
  <metadata
     id="metadata7">
    <rdf:RDF>
      <cc:Work
         rdf:about="">
        <dc:format>image/svg+xml</dc:format>
        <dc:type
           rdf:resource="http://purl.org/dc/dcmitype/StillImage" />
        <dc:title></dc:title>
      </cc:Work>
    </rdf:RDF>
  </metadata>
  <text
     id="text3470"
     y="365.10254"
     x="447.7674"
     style="font-style:normal;font-weight:normal;font-size:40px;line-height:125%;font-family:sans-serif;letter-spacing:0px;word-spacing:0px;fill:#000000;fill-opacity:1;stroke:none;stroke-width:1px;stroke-linecap:butt;stroke-linejoin:miter;stroke-opacity:1"
     xml:space="preserve"><tspan
       y="365.10254"
       x="447.7674"
       id="tspan3472" /></text>
  <text
     xml:space="preserve"
     style="font-style:normal;font-weight:normal;font-size:47.38515854px;line-height:125%;font-family:sans-serif;letter-spacing:0px;word-spacing:0px;fill:#000000;fill-opacity:1;stroke:none;stroke-width:1px;stroke-linecap:butt;stroke-linejoin:miter;stroke-opacity:1"
     x="1702.1912"
     y="62.42358"
     id="text3470-5"><tspan
       id="tspan3472-3"
       x="1702.1912"
       y="62.42358" /></text>
  <text
     id="text3470-53"
     y="24.475918"
     x="226.96567"
     style="font-style:normal;font-weight:normal;font-size:5.11713982px;line-height:125%;font-family:sans-serif;letter-spacing:0px;word-spacing:0px;fill:#000000;fill-opacity:1;stroke:none;stroke-width:0.1279285px;stroke-linecap:butt;stroke-linejoin:miter;stroke-opacity:1"
     xml:space="preserve"><tspan
       style="stroke-width:0.1279285px"
       y="24.475918"
       x="226.96567"
       id="tspan3472-5" /></text>
  <g
     transform="translate(0,0.27645319)"
     id="g1019">
    <g
       id="g1008"
       transform="translate(0,-1.3076322)">
      <path
         id="path3474-7-92-7-2"
         d="m 1.5109992,23.386531 v 4.173921"
         style="fill:none;fill-rule:evenodd;stroke:#3b3b3b;stroke-width:0.30324826;stroke-linecap:butt;stroke-linejoin:miter;stroke-miterlimit:0;stroke-dasharray:none;stroke-opacity:1" />
      <path
         id="path3474-7-9-2-3-9"
         d="m 28.489002,23.404852 v 4.173923"
         style="fill:none;fill-rule:evenodd;stroke:#3b3b3b;stroke-width:0.30324826;stroke-linecap:butt;stroke-linejoin:miter;stroke-miterlimit:0;stroke-dasharray:none;stroke-opacity:1" />
      <path
         id="path3474-7-2-8-6-3"
         d="M 28.489002,25.4735 H 1.5109992"
         style="fill:none;fill-rule:evenodd;stroke:#3b3b3b;stroke-width:0.33203346;stroke-linecap:butt;stroke-linejoin:miter;stroke-miterlimit:0;stroke-dasharray:none;stroke-opacity:1" />
    </g>
    <g
       id="g985">
      <path
         id="path3367-3-2"
         d="M 27.916083,3.83035 22.457349,17.041715"
         style="display:inline;opacity:1;fill:#ffffff;fill-opacity:1;fill-rule:evenodd;stroke:#000000;stroke-width:1.1628294;stroke-linecap:round;stroke-linejoin:miter;stroke-miterlimit:4;stroke-dasharray:none;stroke-opacity:1" />
      <path
         id="path4184-6-1"
         d="m 17.709432,3.763885 c 3.503066,4.4489342 2.787941,10.942877 -0.0073,14.025352"
         style="display:inline;fill:none;fill-rule:evenodd;stroke:#000000;stroke-width:1.1628294;stroke-linecap:round;stroke-linejoin:miter;stroke-miterlimit:4;stroke-dasharray:none;stroke-opacity:1" />
      <path
         id="path4201-7-7"
         d="M 6.8544368,6.7429196 C 7.1466702,11.579048 14.568953,11.462151 14.70323,6.7300681"
         style="display:inline;fill:none;fill-rule:evenodd;stroke:#000000;stroke-width:0.87212205;stroke-linecap:round;stroke-linejoin:miter;stroke-miterlimit:4;stroke-dasharray:none;stroke-opacity:1" />
      <path
         id="path4241-0"
         d="m 1.8796056,12.28124 c 0.1658465,1.68837 1.4216298,2.016281 2.1628677,1.99324 0.748685,-0.02327 1.7637175,-0.426135 1.9453338,-1.99485"
         style="fill:none;fill-rule:evenodd;stroke:#000000;stroke-width:0.87212205;stroke-linecap:round;stroke-linejoin:miter;stroke-miterlimit:4;stroke-dasharray:none;stroke-opacity:1" />
    </g>
  </g>
</svg>
