<?xml version="1.0" encoding="UTF-8" standalone="no"?>
<svg
   xmlns:dc="http://purl.org/dc/elements/1.1/"
   xmlns:cc="http://creativecommons.org/ns#"
   xmlns:rdf="http://www.w3.org/1999/02/22-rdf-syntax-ns#"
   xmlns:svg="http://www.w3.org/2000/svg"
   xmlns="http://www.w3.org/2000/svg"
   width="68.080788mm"
   height="76.571854mm"
   viewBox="0 0 68.080788 76.571854"
   version="1.1"
   id="svg918">
  <defs
     id="defs912" />
  <metadata
     id="metadata915">
    <rdf:RDF>
      <cc:Work
         rdf:about="">
        <dc:format>image/svg+xml</dc:format>
        <dc:type
           rdf:resource="http://purl.org/dc/dcmitype/StillImage" />
        <dc:title></dc:title>
      </cc:Work>
    </rdf:RDF>
  </metadata>
  <g
     transform="translate(-1.7720438,0.01694712)"
     id="g108">
    <path
       id="path2"
       d="M 63.604778,35.230196 59.75814,23.205309 C 57.127581,14.981882 51.197175,8.1619065 43.487901,4.494223 42.47516,4.0124443 41.655573,3.6910299 40.981748,3.5116523 38.390587,2.8219831 33.112797,2.8310734 30.523705,3.5295734 29.850709,3.7111551 29.03222,4.0354623 28.021131,4.5206869 20.324395,8.214682 14.417552,15.055048 11.815099,23.287569 L 8.0096435,35.325545 C 6.8156009,39.102756 7.96363,43.23651 10.934205,45.857152 l 10.153708,8.957735 c -2.504778,2.155393 -3.967194,5.301488 -3.967194,8.647071 v 9.042738 c 0,0.570775 0.462627,1.033266 1.033266,1.033266 h 35.317201 c 0.570781,0 1.033272,-0.462491 1.033272,-1.033266 v -9.042738 c 0,-3.345307 -1.46228,-6.491678 -3.967474,-8.647206 L 60.716877,45.771458 C 63.678209,43.14076 64.81178,39.00301 63.604778,35.230207 Z"
       style="fill:#3b3b3b;fill-opacity:1;stroke-width:0.137769" />
    <path
       style="fill:#282828;fill-opacity:1;stroke-width:0.137769"
       d="M 56.046393,44.474856 35.805795,62.779802 15.565471,44.474856 c -0.503131,-0.45505 -0.655641,-1.182607 -0.376247,-1.80064 0.003,-0.0066 0.0059,-0.01324 0.0089,-0.01984 0.65578,-1.450569 1.928628,-4.165857 3.398622,-6.735112 0.56623,-0.991935 1.162769,-1.963067 1.764684,-2.831013 0.993312,-1.434036 1.99889,-2.587162 2.908165,-3.091397 5.48017,-3.043177 19.592531,-3.043177 25.072566,0 0.909275,0.504235 1.914852,1.657223 2.908164,3.091397 0.602051,0.867946 1.19859,1.839078 1.764682,2.831013 1.469859,2.569255 2.742844,5.284543 3.398624,6.735112 0.003,0.0066 0.0059,0.01324 0.0089,0.01984 0.279256,0.618033 0.126746,1.34559 -0.376247,1.80064 z"
       id="path6" />
    <path
       id="path10"
       style="fill:#caa2dd;fill-opacity:1;stroke-width:0.137769"
       d="m 42.849785,53.129185 v 0.04134 l -7.032131,0.741039 -7.102409,-0.741039 v -0.01755 l -0.168464,5.64e-4 c -1.013977,0.002 -1.99274,0.151618 -2.918686,0.424262 l 10.184392,9.210293 10.226248,-9.248531 c -0.923877,-0.267547 -1.899127,-0.41262 -2.909381,-0.410828 z" />
    <path
       id="path2040"
       style="fill:#c8c8c8;fill-opacity:1;stroke-width:0.137769"
       d="M 41.612133,48.928926 H 30.01284 v 4.221965 l -1.297595,0.0023 v 0.01755 l 7.102409,0.741039 7.032131,-0.741039 v -0.04134 l -1.237652,0.0023 z" />
    <path
       id="path2038"
       style="fill:#c8c8c8;fill-opacity:1;stroke-width:0.137769"
       d="m 30.01284,39.886586 v 9.04234 h 11.599293 v -9.04234 z" />
    <path
       id="path18"
       d="m 48.348664,30.005033 c -5.480171,-3.043177 -19.592395,-3.043177 -25.072566,0 -0.909278,0.504232 -1.914855,1.657223 -2.90817,3.091397 v 1.686156 c 0,2.471434 0.580012,4.806481 1.611762,6.87701 2.529301,5.077889 7.773887,8.567436 13.83269,8.567436 6.058802,0 11.303391,-3.489547 13.832692,-8.567436 1.031886,-2.070529 1.611757,-4.405576 1.611757,-6.87701 V 33.09643 c -0.993174,-1.434174 -1.99889,-2.587303 -2.908165,-3.091397 z"
       style="fill:#e5e5e5;fill-opacity:1;stroke-width:0.137769" />
    <path
       style="fill:#3b3b3b;fill-opacity:1;stroke-width:0.137769"
       d="m 35.81238,47.84515 c -0.570639,0 -1.033267,-0.462491 -1.033267,-1.033272 v -1.377552 c 0,-0.570777 0.462628,-1.033266 1.033267,-1.033266 0.570774,0 1.033263,0.462489 1.033263,1.033266 v 1.377552 c 0,0.570781 -0.462489,1.033272 -1.033263,1.033272 z"
       id="path26" />
    <path
       style="fill:#3b3b3b;fill-opacity:1;stroke-width:0.0667551;stroke-miterlimit:4;stroke-dasharray:none"
       d="m 39.248751,43.963782 c -0.195495,0 -0.389469,-0.05538 -0.558235,-0.163669 l -2.878136,-1.847898 -2.877992,1.84776 c -0.272785,0.175378 -0.612109,0.212163 -0.916302,0.09988 l -3.658593,-1.351237 c -0.535235,-0.197697 -0.808976,-0.791896 -0.61128,-1.327266 0.197835,-0.535367 0.791896,-0.80884 1.32713,-0.611282 l 3.17557,1.172966 3.002949,-1.92808 c 0.340292,-0.218496 0.776467,-0.218225 1.116485,-1.32e-4 l 3.003087,1.928212 3.17557,-1.172966 c 0.535508,-0.197697 1.129566,0.07605 1.32713,0.611282 0.197838,0.53537 -0.07591,1.129569 -0.611279,1.327266 l -3.658593,1.351237 c -0.115726,0.04271 -0.236827,0.06393 -0.357511,0.06393 z"
       id="path28" />
    <path
       id="path4201-3"
       d="m 24.884598,32.461128 c 0.253932,4.202263 6.703384,4.100683 6.82006,-0.01112"
       style="fill:none;fill-rule:evenodd;stroke:#3b3b3b;stroke-width:1.51974;stroke-linecap:round;stroke-linejoin:miter;stroke-miterlimit:4;stroke-dasharray:none;stroke-opacity:1" />
    <path
       id="path4201-7-6"
       d="m 39.455535,32.183667 c 0.253933,4.20226 6.703381,4.100683 6.820055,-0.01112"
       style="display:inline;fill:none;fill-rule:evenodd;stroke:#3b3b3b;stroke-width:1.51974;stroke-linecap:round;stroke-linejoin:miter;stroke-miterlimit:4;stroke-dasharray:none;stroke-opacity:1" />
    <ellipse
       style="display:inline;fill:#ee6666;fill-opacity:1;stroke-width:0.0645863"
       cx="26.560701"
       cy="39.243526"
       rx="1.7652715"
       ry="1.4057845"
       id="ellipse968" />
    <ellipse
       style="display:inline;fill:#ee6666;fill-opacity:1;stroke-width:0.0645863"
       cx="45.064072"
       cy="39.243526"
       rx="1.7652715"
       ry="1.4057845"
       id="ellipse970" />
  </g>
</svg>
