<?xml version="1.0" encoding="UTF-8" standalone="no"?>
<svg
   xmlns:dc="http://purl.org/dc/elements/1.1/"
   xmlns:cc="http://creativecommons.org/ns#"
   xmlns:rdf="http://www.w3.org/1999/02/22-rdf-syntax-ns#"
   xmlns:svg="http://www.w3.org/2000/svg"
   xmlns="http://www.w3.org/2000/svg"
   version="1.1"
   id="Capa_1"
   x="0px"
   y="0px"
   viewBox="0 0 512 512"
   style="enable-background:new 0 0 512 512;"
   xml:space="preserve"><metadata
   id="metadata77"><rdf:RDF><cc:Work
       rdf:about=""><dc:format>image/svg+xml</dc:format><dc:type
         rdf:resource="http://purl.org/dc/dcmitype/StillImage" /><dc:title></dc:title></cc:Work></rdf:RDF></metadata><defs
   id="defs75">
	
	
</defs>














<g
   id="g42">
</g>
<g
   id="g44">
</g>
<g
   id="g46">
</g>
<g
   id="g48">
</g>
<g
   id="g50">
</g>
<g
   id="g52">
</g>
<g
   id="g54">
</g>
<g
   id="g56">
</g>
<g
   id="g58">
</g>
<g
   id="g60">
</g>
<g
   id="g62">
</g>
<g
   id="g64">
</g>
<g
   id="g66">
</g>
<g
   id="g68">
</g>
<g
   id="g70">
</g>
<g
   transform="matrix(0.94022093,0,0,0.94022093,15.303442,15.303442)"
   id="g898"><path
     id="path2"
     d="M 59.907,338.506 C 31.894,328.31 -7.231,292.919 1.154,269.881 c 8.385,-23.038 61.106,-25 89.118,-14.804 28.013,10.196 38.004,34.983 29.619,58.021 -8.385,23.038 -31.972,35.603 -59.984,25.408 z"
     style="fill:#3b3b3b;fill-opacity:1" /><path
     id="path4"
     d="M 59.907,338.506 C 31.894,328.31 -7.231,292.919 1.154,269.881 c 8.385,-23.038 61.106,-25 89.118,-14.804 28.013,10.196 38.004,34.983 29.619,58.021 -8.385,23.038 -31.972,35.603 -59.984,25.408 z"
     style="opacity:0.1;enable-background:new" /><path
     id="path6"
     d="m 90.272,255.077 c -10.303,-3.75 -23.947,-5.852 -37.498,-5.87 -4.884,30.775 -5.174,60.292 -0.933,85.826 2.753,1.356 5.458,2.524 8.065,3.473 28.013,10.196 51.6,-2.37 59.985,-25.408 8.386,-23.039 -1.606,-47.826 -29.619,-58.021 z"
     style="opacity:0.1;enable-background:new" /><path
     id="path8"
     d="m 452.093,338.506 c 28.013,-10.196 67.138,-45.586 58.753,-68.625 -8.385,-23.038 -61.106,-25 -89.118,-14.804 -28.013,10.196 -38.004,34.983 -29.619,58.021 8.385,23.038 31.972,35.603 59.984,25.408 z"
     style="fill:#3b3b3b;fill-opacity:1" /><path
     id="path10"
     d="m 452.093,338.506 c 28.013,-10.196 67.138,-45.586 58.753,-68.625 -8.385,-23.038 -61.106,-25 -89.118,-14.804 -28.013,10.196 -38.004,34.983 -29.619,58.021 8.385,23.038 31.972,35.603 59.984,25.408 z"
     style="opacity:0.1;enable-background:new" /><path
     id="path12"
     d="m 421.728,255.077 c 10.302,-3.75 23.947,-5.852 37.498,-5.87 4.884,30.775 5.174,60.292 0.933,85.826 -2.753,1.356 -5.457,2.524 -8.065,3.473 -28.013,10.196 -51.6,-2.37 -59.985,-25.408 -8.386,-23.039 1.606,-47.826 29.619,-58.021 z"
     style="opacity:0.1;enable-background:new" /><path
     id="path14"
     d="M 397.08681,411.22182 C 416.83392,397.52278 431.50569,378.36141 439.497,351.978 468.263,257.006 411.771,52.838 256,52.838 c -155.771,0 -212.263,204.168 -183.497,299.14 7.997745,26.40467 22.686731,45.57565 42.45794,59.27693 94.86473,0.759 217.68131,20.02871 282.12587,-0.0331 z"
     style="fill:#3b3b3b;fill-opacity:1" /><path
     id="path16"
     d="m 366.085,302.496 c -5.456,-11.126 -3.153,-24.421 5.556,-33.237 14.933,-15.116 23.98,-36.055 23.412,-59.113 -1.056,-42.879 -35.957,-77.928 -78.831,-79.157 -19.216,-0.551 -36.976,5.579 -51.144,16.232 -5.35,4.023 -12.805,4.023 -18.156,0 -14.168,-10.653 -31.928,-16.783 -51.144,-16.232 -42.874,1.229 -77.775,36.278 -78.831,79.157 -0.568,23.057 8.479,43.996 23.412,59.112 8.709,8.816 11.012,22.111 5.556,33.237 -16.152,32.936 -26.381,71.655 -30.958,108.745 34.432,23.867 84.276,31.147 141.043,31.147 56.767,0 106.611,-7.28 141.043,-31.147 -4.577,-37.089 -14.806,-75.807 -30.958,-108.744 z"
     style="fill:#f7f7f7;fill-opacity:1" /><path
     id="path18"
     d="m 256,263.933 c 12.747,0 26.411,-11.547 29.151,-31.197 C 288.471,208.924 272.1,203.85 256,203.85 c -16.1,0 -32.471,5.074 -29.151,28.886 2.74,19.65 16.404,31.197 29.151,31.197 z"
     style="fill:#ffd064;fill-opacity:1" /><path
     style="fill:#ffd064;fill-opacity:1"
     d="m 218.386,459.162 h -32.794 c -9.932,0 -17.984,-8.052 -17.984,-17.984 v 0 c 0,-9.932 8.052,-17.984 17.984,-17.984 h 32.794 c 9.932,0 17.984,8.052 17.984,17.984 v 0 c -0.001,9.932 -8.052,17.984 -17.984,17.984 z"
     id="path36" /><path
     style="fill:#ffd064;fill-opacity:1"
     d="m 293.614,459.162 h 32.794 c 9.932,0 17.984,-8.052 17.984,-17.984 v 0 c 0,-9.932 -8.052,-17.984 -17.984,-17.984 h -32.794 c -9.932,0 -17.984,8.052 -17.984,17.984 v 0 c 10e-4,9.932 8.052,17.984 17.984,17.984 z"
     id="path38" /><g
     transform="translate(-1.017385)"
     id="g942"><path
       id="path4201-3"
       d="m 169.39431,181.37107 c 1.70047,28.14072 44.88965,27.4605 45.67098,-0.0744"
       style="fill:none;fill-rule:evenodd;stroke:#3b3b3b;stroke-width:10.177;stroke-linecap:round;stroke-linejoin:miter;stroke-miterlimit:4;stroke-dasharray:none;stroke-opacity:1" /><path
       id="path4201-7-6"
       d="m 298.96953,179.51303 c 1.70047,28.14072 44.88962,27.4605 45.67093,-0.0744"
       style="display:inline;fill:none;fill-rule:evenodd;stroke:#3b3b3b;stroke-width:10.177;stroke-linecap:round;stroke-linejoin:miter;stroke-miterlimit:4;stroke-dasharray:none;stroke-opacity:1" /></g><ellipse
     id="ellipse968"
     ry="11.252575"
     rx="14.130082"
     cy="237.03198"
     cx="183.80453"
     style="display:inline;fill:#ee6666;fill-opacity:1;stroke-width:0.51698" /><ellipse
     id="ellipse970"
     ry="11.252575"
     rx="14.130082"
     cy="237.03198"
     cx="331.91434"
     style="display:inline;fill:#ee6666;fill-opacity:1;stroke-width:0.51698" /></g></svg>
