<?xml version="1.0" encoding="UTF-8" standalone="no"?>
<svg
   xmlns:dc="http://purl.org/dc/elements/1.1/"
   xmlns:cc="http://creativecommons.org/ns#"
   xmlns:rdf="http://www.w3.org/1999/02/22-rdf-syntax-ns#"
   xmlns:svg="http://www.w3.org/2000/svg"
   xmlns="http://www.w3.org/2000/svg"
   xmlns:sodipodi="http://sodipodi.sourceforge.net/DTD/sodipodi-0.dtd"
   xmlns:inkscape="http://www.inkscape.org/namespaces/inkscape"
   width="3300"
   height="1200"
   viewBox="0 0 3093.7498 1125"
   id="svg2"
   version="1.1"
   sodipodi:docname="planimetri1.svg"
   inkscape:version="0.92.4 5da689c313, 2019-01-14">
  <sodipodi:namedview
     pagecolor="#ffffff"
     bordercolor="#666666"
     borderopacity="1"
     objecttolerance="10"
     gridtolerance="10"
     guidetolerance="10"
     inkscape:pageopacity="0"
     inkscape:pageshadow="2"
     inkscape:window-width="1366"
     inkscape:window-height="705"
     id="namedview55"
     showgrid="false"
     fit-margin-top="0"
     fit-margin-left="0"
     fit-margin-right="0"
     fit-margin-bottom="0"
     units="px"
     inkscape:zoom="0.1825625"
     inkscape:cx="2010.6457"
     inkscape:cy="290.61754"
     inkscape:window-x="0"
     inkscape:window-y="30"
     inkscape:window-maximized="1"
     inkscape:current-layer="svg2" />
  <defs
     id="defs4" />
  <metadata
     id="metadata7">
    <rdf:RDF>
      <cc:Work
         rdf:about="">
        <dc:format>image/svg+xml</dc:format>
        <dc:type
           rdf:resource="http://purl.org/dc/dcmitype/StillImage" />
        <dc:title></dc:title>
      </cc:Work>
    </rdf:RDF>
  </metadata>
  <text
     id="text3470"
     y="1210.8895"
     x="714.96887"
     style="font-style:normal;font-weight:normal;font-size:40px;line-height:125%;font-family:sans-serif;letter-spacing:0px;word-spacing:0px;fill:#000000;fill-opacity:1;stroke:none;stroke-width:1px;stroke-linecap:butt;stroke-linejoin:miter;stroke-opacity:1"
     xml:space="preserve"><tspan
       y="1210.8895"
       x="714.96887"
       id="tspan3472" /></text>
  <text
     xml:space="preserve"
     style="font-style:normal;font-weight:normal;font-size:47.38515854px;line-height:125%;font-family:sans-serif;letter-spacing:0px;word-spacing:0px;fill:#000000;fill-opacity:1;stroke:none;stroke-width:1px;stroke-linecap:butt;stroke-linejoin:miter;stroke-opacity:1"
     x="1969.3926"
     y="908.20978"
     id="text3470-5"><tspan
       id="tspan3472-3"
       x="1969.3926"
       y="908.20978" /></text>
  <g
     id="g1800"
     transform="matrix(3.9920845,0,0,3.9920845,-4628.3805,-1683.0476)">
    <path
       inkscape:connector-curvature="0"
       style="fill:none;fill-rule:evenodd;stroke:#3b3b3b;stroke-width:1.02499998;stroke-linecap:butt;stroke-linejoin:miter;stroke-miterlimit:0;stroke-dasharray:none;stroke-opacity:1"
       d="m 1261.1483,596.74646 h 17.7934"
       id="path3474-7-9" />
    <rect
       style="opacity:1;fill:none;fill-opacity:1;fill-rule:nonzero;stroke:#3b3b3b;stroke-width:1.40625;stroke-linecap:butt;stroke-linejoin:miter;stroke-miterlimit:0;stroke-dasharray:5.62500005, 5.62500005;stroke-dashoffset:0;stroke-opacity:1"
       id="rect4326-2-3-6"
       width="704.04749"
       height="195.36838"
       x="1194.8512"
       y="464.26489"
       rx="0" />
    <path
       inkscape:connector-curvature="0"
       d="m 1672.0592,594.17942 h -3.1582 v -0.74618 h 3.1582 z"
       style="font-style:normal;font-variant:normal;font-weight:normal;font-stretch:normal;font-size:medium;line-height:125%;font-family:Leelawadee;-inkscape-font-specification:Leelawadee;letter-spacing:0px;word-spacing:0px;fill:#000000;fill-opacity:1;stroke:none;stroke-width:0.29615724px;stroke-linecap:butt;stroke-linejoin:miter;stroke-opacity:1"
       id="path3421-5-4-7" />
    <g
       transform="matrix(0.25,0,0,0.25,1160.1562,421.875)"
       id="g1456">
      <path
         id="path3402-6-7-7"
         style="font-style:normal;font-variant:normal;font-weight:normal;font-stretch:normal;font-size:medium;line-height:125%;font-family:Quicksand;-inkscape-font-specification:Quicksand;letter-spacing:0px;word-spacing:0px;fill:#000000;fill-opacity:1;stroke:none;stroke-width:1.18462896px;stroke-linecap:butt;stroke-linejoin:miter;stroke-opacity:1"
         d="M 1553.9286,685.00137 V 440.62134 q 0,-3.74812 2.566,-6.37176 2.5661,-2.62373 6.2318,-2.62373 3.6657,0 6.2318,2.62373 2.9326,2.62364 2.9326,6.37176 v 176.53839 l 106.3064,-108.32177 q 6.2318,-6.37194 12.4635,0 2.9326,2.62365 2.9326,6.37185 0,3.37332 -2.9326,6.37175 l -69.2825,70.84037 69.649,86.58248 q 5.4987,6.74664 -0.7333,13.11849 -2.1995,1.87406 -5.8652,1.87406 -5.1321,0 -6.9648,-3.37333 l -68.9161,-85.08322 -36.6573,37.48158 v 41.97938 q 0,3.74821 -2.9326,6.37185 -2.566,2.62374 -6.2318,2.62374 -3.6657,0 -6.2318,-2.62374 -2.5659,-2.62364 -2.5659,-6.37185 z"
         inkscape:connector-curvature="0" />
      <path
         id="path3404-2-4-1"
         style="font-style:normal;font-variant:normal;font-weight:normal;font-stretch:normal;font-size:medium;line-height:125%;font-family:Quicksand;-inkscape-font-specification:Quicksand;letter-spacing:0px;word-spacing:0px;fill:#000000;fill-opacity:1;stroke:none;stroke-width:1.18462896px;stroke-linecap:butt;stroke-linejoin:miter;stroke-opacity:1"
         d="m 1926.5683,687.9999 -22.7276,-61.8446 h -116.9371 l -22.7276,61.8446 q -2.1994,5.99706 -8.4312,5.99706 -0.3667,0 -1.4663,0 -1.0997,-0.37479 -1.8329,-0.37479 -3.2991,-1.49927 -5.1321,-4.87259 -1.4663,-3.74821 0,-7.12144 l 89.0776,-243.25565 q 2.566,-5.62217 8.7977,-5.62217 6.965,0 8.7978,5.62217 l 89.0774,243.25565 q 1.4663,3.37323 0,7.12144 -1.4662,3.37332 -4.7653,4.87259 -0.7334,0 -1.8329,0.37479 -1.0998,0 -1.4663,0 -6.2318,0 -8.4312,-5.99706 z m -81.0129,-221.14141 -52.0534,140.93078 h 103.7403 z"
         inkscape:connector-curvature="0" />
      <path
         id="path3406-9-4-1"
         style="font-style:normal;font-variant:normal;font-weight:normal;font-stretch:normal;font-size:medium;line-height:125%;font-family:Quicksand;-inkscape-font-specification:Quicksand;letter-spacing:0px;word-spacing:0px;fill:#000000;fill-opacity:1;stroke:none;stroke-width:1.18462896px;stroke-linecap:butt;stroke-linejoin:miter;stroke-opacity:1"
         d="m 2003.5832,667.0103 q -24.927,-27.36162 -24.927,-64.84329 0,-37.48151 24.927,-64.46834 24.927,-27.36145 60.1181,-27.36145 35.1911,0 60.1181,27.36145 24.9271,26.98683 24.9271,64.46834 0,37.48167 -24.9271,64.84329 -24.927,26.98666 -60.1181,26.98666 -35.1911,0 -60.1181,-26.98666 z m -7.3316,-64.84329 q 0,30.36014 19.7951,52.09951 20.1615,21.73936 47.6546,21.73936 27.493,0 47.288,-21.73936 20.1615,-21.73937 20.1615,-52.09951 0,-30.73487 -20.1615,-52.47424 -19.795,-21.73926 -47.288,-21.73926 -27.4931,0 -47.6546,21.73926 -19.7951,21.73937 -19.7951,52.47424 z"
         inkscape:connector-curvature="0" />
      <path
         id="path3408-1-3-5"
         style="font-style:normal;font-variant:normal;font-weight:normal;font-stretch:normal;font-size:medium;line-height:125%;font-family:Quicksand;-inkscape-font-specification:Quicksand;letter-spacing:0px;word-spacing:0px;fill:#000000;fill-opacity:1;stroke:none;stroke-width:1.18462896px;stroke-linecap:butt;stroke-linejoin:miter;stroke-opacity:1"
         d="M 2217.192,685.00137 V 519.33281 q 0,-3.74821 2.566,-6.37195 2.566,-2.62364 6.2317,-2.62364 4.0324,0 6.5984,2.62364 2.566,2.62374 2.566,6.37195 v 165.66856 q 0,3.74821 -2.9325,6.37185 -2.5661,2.62374 -6.2319,2.62374 -3.6657,0 -6.2317,-2.62374 -2.566,-2.62364 -2.566,-6.37185 z m 0,-217.0184 v -8.6208 q 0,-3.7482 2.566,-6.37193 2.566,-2.62364 6.2317,-2.62364 3.6658,0 6.2319,2.62364 2.9325,2.62373 2.9325,6.37193 v 8.6208 q 0,4.1229 -2.9325,7.12143 -2.5661,2.62373 -6.2319,2.62373 -3.6657,0 -6.2317,-2.62373 -2.566,-2.99853 -2.566,-7.12143 z"
         inkscape:connector-curvature="0" />
      <path
         id="path3410-2-0-9"
         style="font-style:normal;font-variant:normal;font-weight:normal;font-stretch:normal;font-size:medium;line-height:125%;font-family:Quicksand;-inkscape-font-specification:Quicksand;letter-spacing:0px;word-spacing:0px;fill:#000000;fill-opacity:1;stroke:none;stroke-width:1.18462896px;stroke-linecap:butt;stroke-linejoin:miter;stroke-opacity:1"
         d="m 2309.3974,517.83354 q 0,-35.60761 24.9271,-60.7203 24.927,-25.48739 59.7515,-25.48739 32.6251,0 56.4525,22.11406 24.1939,21.73938 27.8596,54.34837 0.3666,0.3748 0.3666,1.12448 0,0.37479 0.3658,0.74958 0.7334,14.24296 0.7334,22.48895 0,60.34543 -24.5605,104.57365 -31.1588,54.72317 -89.8106,56.97202 h -0.3667 q -4.0322,0 -6.5982,-2.24885 -2.5661,-2.62373 -2.5661,-6.37195 0,-8.99548 8.7978,-9.74507 48.3877,-1.87415 74.781,-47.60173 13.1967,-23.61342 18.3288,-52.47422 -24.5604,28.8608 -63.7839,28.8608 -35.1911,0 -60.1181,-25.11259 -24.5605,-25.48757 -24.5605,-61.46981 z m 84.6786,68.21645 q 28.2262,0 47.6546,-19.86523 19.4285,-19.8653 19.4285,-48.35122 0,-28.11131 -19.795,-47.97652 -19.4284,-19.86531 -47.2881,-19.86531 -27.493,0 -47.288,19.86531 -19.4284,19.86521 -19.4284,47.97652 0,28.48592 19.4284,48.35122 19.795,19.86523 47.288,19.86523 z"
         inkscape:connector-curvature="0" />
      <path
         id="path3412-7-7-7"
         style="font-style:normal;font-variant:normal;font-weight:normal;font-stretch:normal;font-size:medium;line-height:125%;font-family:Quicksand;-inkscape-font-specification:Quicksand;letter-spacing:0px;word-spacing:0px;fill:#000000;fill-opacity:1;stroke:none;stroke-width:1.18462896px;stroke-linecap:butt;stroke-linejoin:miter;stroke-opacity:1"
         d="m 2577.7983,693.24737 q -3.2991,-1.49926 -4.7654,-4.87267 -1.4663,-3.74812 -0.3667,-7.12153 l 94.9427,-230.13699 H 2543.707 q -3.6659,0 -6.2319,-2.62374 -2.5661,-2.62373 -2.5661,-6.37184 0,-3.74811 2.5661,-6.37176 2.566,-2.62373 6.2319,-2.62373 h 135.6322 q 2.9327,-0.74959 5.4986,0.3748 3.6658,1.87396 4.7656,5.62216 0.7334,2.24886 0.7334,2.99853 0,2.99853 -1.4663,4.87259 L 2589.529,688.3747 q -2.5661,5.62226 -8.0648,5.62226 -2.1994,0 -3.6657,-0.74959 z"
         inkscape:connector-curvature="0" />
    </g>
    <rect
       style="opacity:1;fill:none;fill-opacity:1;fill-rule:nonzero;stroke:#e5e5e5;stroke-width:1.40625;stroke-linecap:butt;stroke-linejoin:miter;stroke-miterlimit:0;stroke-dasharray:8.43750008, 8.43750008;stroke-dashoffset:0;stroke-opacity:1"
       id="rect4326-2-3-7-9-7"
       width="571.95123"
       height="66.066093"
       x="1261.8789"
       y="530.19891"
       rx="0" />
    <g
       transform="matrix(0.25,0,0,0.25,1160.1562,421.875)"
       id="g1465">
      <path
         id="path3367-6-2-6-7"
         d="m 2701.5442,1028.5125 227.2942,-91.16924"
         style="opacity:1;fill:#ffffff;fill-opacity:1;fill-rule:evenodd;stroke:#e5e5e5;stroke-width:20;stroke-linecap:round;stroke-linejoin:miter;stroke-miterlimit:4;stroke-dasharray:none;stroke-opacity:1"
         inkscape:connector-curvature="0" />
      <path
         id="path3367-3-7-7-1-5"
         d="m 2701.5997,98.31105 227.228,93.8872"
         style="display:inline;opacity:1;fill:#ffffff;fill-opacity:1;fill-rule:evenodd;stroke:#e5e5e5;stroke-width:20;stroke-linecap:round;stroke-linejoin:miter;stroke-miterlimit:4;stroke-dasharray:none;stroke-opacity:1"
         inkscape:connector-curvature="0" />
      <path
         inkscape:connector-curvature="0"
         id="path4184-5-0-8-9"
         d="m 2700.4488,853.85574 c 76.5191,60.25075 188.2112,47.951 241.2281,-0.125"
         style="fill:none;fill-rule:evenodd;stroke:#e5e5e5;stroke-width:20;stroke-linecap:round;stroke-linejoin:miter;stroke-miterlimit:4;stroke-dasharray:none;stroke-opacity:1" />
      <path
         inkscape:connector-curvature="0"
         id="path4184-6-3-9-7-2"
         d="m 2700.4566,273.85965 c 76.5191,-60.2508 188.2112,-47.951 241.228,0.125"
         style="display:inline;fill:none;fill-rule:evenodd;stroke:#e5e5e5;stroke-width:20;stroke-linecap:round;stroke-linejoin:miter;stroke-miterlimit:4;stroke-dasharray:none;stroke-opacity:1" />
      <path
         id="path4201-6-6-2-8"
         d="m 2751.7323,793.44861 c 83.1787,-5.02624 81.1681,-132.68528 -0.2209,-134.99474"
         style="fill:none;fill-rule:evenodd;stroke:#e5e5e5;stroke-width:15;stroke-linecap:round;stroke-linejoin:miter;stroke-miterlimit:4;stroke-dasharray:none;stroke-opacity:1"
         inkscape:connector-curvature="0" />
      <path
         id="path4201-7-2-0-0-9"
         d="m 2751.6942,460.55936 c 83.1787,-5.02624 81.1681,-132.68528 -0.2209,-134.99474"
         style="display:inline;fill:none;fill-rule:evenodd;stroke:#e5e5e5;stroke-width:15;stroke-linecap:round;stroke-linejoin:miter;stroke-miterlimit:4;stroke-dasharray:none;stroke-opacity:1"
         inkscape:connector-curvature="0" />
      <path
         id="path4241-9-6-2-7"
         d="m 2846.9502,546.1236 c 29.039,-2.85247 34.6789,-24.45121 34.2826,-37.20007 -0.4003,-12.87697 -7.3293,-30.33495 -34.3103,-33.45865"
         style="fill:none;fill-rule:evenodd;stroke:#e5e5e5;stroke-width:15;stroke-linecap:round;stroke-linejoin:miter;stroke-miterlimit:4;stroke-dasharray:none;stroke-opacity:1"
         inkscape:connector-curvature="0" />
    </g>
    <g
       transform="matrix(0.25,0,0,0.25,1160.1562,421.875)"
       id="g1411">
      <path
         id="path3367-6-2-6-7-6"
         d="M 154.3509,1026.6903 381.6451,935.52108"
         style="opacity:1;fill:#ffffff;fill-opacity:1;fill-rule:evenodd;stroke:#e5e5e5;stroke-width:20;stroke-linecap:round;stroke-linejoin:miter;stroke-miterlimit:4;stroke-dasharray:none;stroke-opacity:1"
         inkscape:connector-curvature="0" />
      <path
         id="path3367-3-7-7-1-5-1"
         d="m 154.4064,96.48887 227.228,93.8872"
         style="display:inline;opacity:1;fill:#ffffff;fill-opacity:1;fill-rule:evenodd;stroke:#e5e5e5;stroke-width:20;stroke-linecap:round;stroke-linejoin:miter;stroke-miterlimit:4;stroke-dasharray:none;stroke-opacity:1"
         inkscape:connector-curvature="0" />
      <path
         inkscape:connector-curvature="0"
         id="path4184-5-0-8-9-2"
         d="m 153.2555,852.03356 c 76.5191,60.25075 188.2112,47.951 241.2281,-0.125"
         style="fill:none;fill-rule:evenodd;stroke:#e5e5e5;stroke-width:20;stroke-linecap:round;stroke-linejoin:miter;stroke-miterlimit:4;stroke-dasharray:none;stroke-opacity:1" />
      <path
         inkscape:connector-curvature="0"
         id="path4184-6-3-9-7-2-9"
         d="m 153.2633,272.03747 c 76.5191,-60.2508 188.2112,-47.951 241.228,0.125"
         style="display:inline;fill:none;fill-rule:evenodd;stroke:#e5e5e5;stroke-width:20;stroke-linecap:round;stroke-linejoin:miter;stroke-miterlimit:4;stroke-dasharray:none;stroke-opacity:1" />
      <path
         id="path4201-6-6-2-8-3"
         d="m 204.539,791.62643 c 83.1787,-5.02624 81.1681,-132.68528 -0.2209,-134.99474"
         style="fill:none;fill-rule:evenodd;stroke:#e5e5e5;stroke-width:15;stroke-linecap:round;stroke-linejoin:miter;stroke-miterlimit:4;stroke-dasharray:none;stroke-opacity:1"
         inkscape:connector-curvature="0" />
      <path
         id="path4201-7-2-0-0-9-1"
         d="M 204.5009,458.73718 C 287.6796,453.71094 285.669,326.0519 204.28,323.74244"
         style="display:inline;fill:none;fill-rule:evenodd;stroke:#e5e5e5;stroke-width:15;stroke-linecap:round;stroke-linejoin:miter;stroke-miterlimit:4;stroke-dasharray:none;stroke-opacity:1"
         inkscape:connector-curvature="0" />
      <path
         id="path4241-9-6-2-7-9"
         d="m 299.7569,544.30142 c 29.039,-2.85247 34.6789,-24.45121 34.2826,-37.20007 -0.4003,-12.87697 -7.3293,-30.33495 -34.3103,-33.45865"
         style="fill:none;fill-rule:evenodd;stroke:#e5e5e5;stroke-width:15;stroke-linecap:round;stroke-linejoin:miter;stroke-miterlimit:4;stroke-dasharray:none;stroke-opacity:1"
         inkscape:connector-curvature="0" />
    </g>
    <g
       transform="matrix(0.25,0,0,0.25,1160.1562,421.875)"
       id="g1448">
      <g
         id="g1430">
        <path
           inkscape:connector-curvature="0"
           style="opacity:1;fill:#ffffff;fill-opacity:1;fill-rule:evenodd;stroke:#000000;stroke-width:20;stroke-linecap:round;stroke-linejoin:miter;stroke-miterlimit:4;stroke-dasharray:none;stroke-opacity:1"
           d="m 414.6507,442.06957 91.16919,227.2942"
           id="path3367" />
        <path
           inkscape:connector-curvature="0"
           style="display:inline;opacity:1;fill:#ffffff;fill-opacity:1;fill-rule:evenodd;stroke:#000000;stroke-width:20;stroke-linecap:round;stroke-linejoin:miter;stroke-miterlimit:4;stroke-dasharray:none;stroke-opacity:1"
           d="m 1344.8521,442.12509 -93.8872,227.22792"
           id="path3367-3" />
        <path
           style="fill:none;fill-rule:evenodd;stroke:#000000;stroke-width:20;stroke-linecap:round;stroke-linejoin:miter;stroke-miterlimit:4;stroke-dasharray:none;stroke-opacity:1"
           d="m 589.30741,440.97418 c -60.25075,76.51912 -47.951,188.21122 0.125,241.22802"
           id="path4184"
           inkscape:connector-curvature="0" />
        <path
           style="display:inline;fill:none;fill-rule:evenodd;stroke:#000000;stroke-width:20;stroke-linecap:round;stroke-linejoin:miter;stroke-miterlimit:4;stroke-dasharray:none;stroke-opacity:1"
           d="m 1169.3035,440.98193 c 60.2508,76.51912 47.951,188.21122 -0.125,241.22802"
           id="path4184-6"
           inkscape:connector-curvature="0" />
        <g
           transform="translate(780.28671,712.32327)"
           id="g4243">
          <path
             id="path4201"
             d="m -130.57215,-220.06557 c 5.02624,83.17863 132.6852838,81.16807 134.9947449,-0.22097"
             style="fill:none;fill-rule:evenodd;stroke:#000000;stroke-width:15;stroke-linecap:round;stroke-linejoin:miter;stroke-miterlimit:4;stroke-dasharray:none;stroke-opacity:1"
             inkscape:connector-curvature="0" />
          <path
             id="path4201-7"
             d="m 202.3171,-220.10365 c 5.02624,83.17863 132.68528,81.16807 134.99474,-0.22097"
             style="display:inline;fill:none;fill-rule:evenodd;stroke:#000000;stroke-width:15;stroke-linecap:round;stroke-linejoin:miter;stroke-miterlimit:4;stroke-dasharray:none;stroke-opacity:1"
             inkscape:connector-curvature="0" />
          <path
             id="path4241"
             d="m 116.75286,-124.8477 c 2.85247,29.03898 24.45121,34.678871 37.20007,34.282568 12.87697,-0.400286 30.33495,-7.329264 33.45865,-34.310268"
             style="fill:none;fill-rule:evenodd;stroke:#000000;stroke-width:15;stroke-linecap:round;stroke-linejoin:miter;stroke-miterlimit:4;stroke-dasharray:none;stroke-opacity:1"
             inkscape:connector-curvature="0" />
        </g>
      </g>
      <path
         id="path3367-6-2-6-7-6-7"
         d="m 414.65064,180.61593 91.16919,227.2942"
         style="opacity:1;fill:#ffffff;fill-opacity:1;fill-rule:evenodd;stroke:#e5e5e5;stroke-width:20;stroke-linecap:round;stroke-linejoin:miter;stroke-miterlimit:4;stroke-dasharray:none;stroke-opacity:1"
         inkscape:connector-curvature="0" />
      <path
         id="path3367-3-7-7-1-5-1-8"
         d="m 1344.852,180.67143 -93.8872,227.228"
         style="display:inline;opacity:1;fill:#ffffff;fill-opacity:1;fill-rule:evenodd;stroke:#e5e5e5;stroke-width:20;stroke-linecap:round;stroke-linejoin:miter;stroke-miterlimit:4;stroke-dasharray:none;stroke-opacity:1"
         inkscape:connector-curvature="0" />
      <path
         inkscape:connector-curvature="0"
         id="path4184-5-0-8-9-2-4"
         d="m 589.30735,179.52053 c -60.25075,76.5191 -47.951,188.2112 0.125,241.2281"
         style="fill:none;fill-rule:evenodd;stroke:#e5e5e5;stroke-width:20;stroke-linecap:round;stroke-linejoin:miter;stroke-miterlimit:4;stroke-dasharray:none;stroke-opacity:1" />
      <path
         inkscape:connector-curvature="0"
         id="path4184-6-3-9-7-2-9-5"
         d="m 1169.3034,179.52833 c 60.2508,76.5191 47.951,188.2112 -0.125,241.228"
         style="display:inline;fill:none;fill-rule:evenodd;stroke:#e5e5e5;stroke-width:20;stroke-linecap:round;stroke-linejoin:miter;stroke-miterlimit:4;stroke-dasharray:none;stroke-opacity:1" />
      <path
         id="path4201-6-6-2-8-3-0"
         d="m 649.71448,230.80403 c 5.02624,83.1787 132.68528,81.1681 134.99474,-0.2209"
         style="fill:none;fill-rule:evenodd;stroke:#e5e5e5;stroke-width:15;stroke-linecap:round;stroke-linejoin:miter;stroke-miterlimit:4;stroke-dasharray:none;stroke-opacity:1"
         inkscape:connector-curvature="0" />
      <path
         id="path4201-7-2-0-0-9-1-3"
         d="m 982.60373,230.76593 c 5.02624,83.1787 132.68527,81.1681 134.99477,-0.2209"
         style="display:inline;fill:none;fill-rule:evenodd;stroke:#e5e5e5;stroke-width:15;stroke-linecap:round;stroke-linejoin:miter;stroke-miterlimit:4;stroke-dasharray:none;stroke-opacity:1"
         inkscape:connector-curvature="0" />
      <path
         id="path4241-9-6-2-7-9-6"
         d="m 897.03949,326.02193 c 2.85247,29.039 24.45121,34.6789 37.20007,34.2826 12.87697,-0.4003 30.33495,-7.3293 33.45865,-34.3103"
         style="fill:none;fill-rule:evenodd;stroke:#e5e5e5;stroke-width:15;stroke-linecap:round;stroke-linejoin:miter;stroke-miterlimit:4;stroke-dasharray:none;stroke-opacity:1"
         inkscape:connector-curvature="0" />
    </g>
    <g
       transform="matrix(0.25,0,0,0.25,1160.1562,421.875)"
       id="g1420">
      <path
         id="path3367-6-2-6-7-6-7-0"
         d="m 414.65069,703.52318 91.16919,227.2942"
         style="opacity:1;fill:#ffffff;fill-opacity:1;fill-rule:evenodd;stroke:#e5e5e5;stroke-width:20;stroke-linecap:round;stroke-linejoin:miter;stroke-miterlimit:4;stroke-dasharray:none;stroke-opacity:1"
         inkscape:connector-curvature="0" />
      <path
         id="path3367-3-7-7-1-5-1-8-6"
         d="m 1344.8521,703.57868 -93.8872,227.228"
         style="display:inline;opacity:1;fill:#ffffff;fill-opacity:1;fill-rule:evenodd;stroke:#e5e5e5;stroke-width:20;stroke-linecap:round;stroke-linejoin:miter;stroke-miterlimit:4;stroke-dasharray:none;stroke-opacity:1"
         inkscape:connector-curvature="0" />
      <path
         inkscape:connector-curvature="0"
         id="path4184-5-0-8-9-2-4-3"
         d="m 589.3074,702.42778 c -60.25075,76.5191 -47.951,188.2112 0.125,241.2281"
         style="fill:none;fill-rule:evenodd;stroke:#e5e5e5;stroke-width:20;stroke-linecap:round;stroke-linejoin:miter;stroke-miterlimit:4;stroke-dasharray:none;stroke-opacity:1" />
      <path
         inkscape:connector-curvature="0"
         id="path4184-6-3-9-7-2-9-5-2"
         d="m 1169.3035,702.43558 c 60.2508,76.5191 47.951,188.2112 -0.125,241.228"
         style="display:inline;fill:none;fill-rule:evenodd;stroke:#e5e5e5;stroke-width:20;stroke-linecap:round;stroke-linejoin:miter;stroke-miterlimit:4;stroke-dasharray:none;stroke-opacity:1" />
      <path
         id="path4201-6-6-2-8-3-0-0"
         d="m 649.71453,753.71128 c 5.02624,83.1787 132.68528,81.1681 134.99474,-0.2209"
         style="fill:none;fill-rule:evenodd;stroke:#e5e5e5;stroke-width:15;stroke-linecap:round;stroke-linejoin:miter;stroke-miterlimit:4;stroke-dasharray:none;stroke-opacity:1"
         inkscape:connector-curvature="0" />
      <path
         id="path4201-7-2-0-0-9-1-3-6"
         d="m 982.60378,753.67318 c 5.02624,83.1787 132.68532,81.1681 134.99472,-0.2209"
         style="display:inline;fill:none;fill-rule:evenodd;stroke:#e5e5e5;stroke-width:15;stroke-linecap:round;stroke-linejoin:miter;stroke-miterlimit:4;stroke-dasharray:none;stroke-opacity:1"
         inkscape:connector-curvature="0" />
      <path
         id="path4241-9-6-2-7-9-6-1"
         d="m 897.03954,848.92918 c 2.85247,29.039 24.45121,34.6789 37.20007,34.2826 12.87697,-0.4003 30.33495,-7.3293 33.45865,-34.3103"
         style="fill:none;fill-rule:evenodd;stroke:#e5e5e5;stroke-width:15;stroke-linecap:round;stroke-linejoin:miter;stroke-miterlimit:4;stroke-dasharray:none;stroke-opacity:1"
         inkscape:connector-curvature="0" />
    </g>
    <path
       inkscape:connector-curvature="0"
       d="m 1544.1186,594.95785 -5.6819,-15.46115 h -29.2342 l -5.6819,15.46115 q -0.5499,1.49927 -2.1078,1.49927 -0.092,0 -0.3666,0 -0.2749,-0.0937 -0.4582,-0.0937 -0.8248,-0.37482 -1.2831,-1.21815 -0.3665,-0.93705 0,-1.78036 l 22.2694,-60.81391 q 0.6416,-1.40554 2.1995,-1.40554 1.7412,0 2.1994,1.40554 l 22.2694,60.81391 q 0.3666,0.84331 0,1.78036 -0.3666,0.84333 -1.1913,1.21815 -0.1834,0 -0.4583,0.0937 -0.2749,0 -0.3666,0 -1.5579,0 -2.1078,-1.49927 z m -20.2532,-55.28535 -13.0133,35.2327 h 25.935 z"
       style="font-style:normal;font-variant:normal;font-weight:normal;font-stretch:normal;font-size:medium;line-height:125%;font-family:Quicksand;-inkscape-font-specification:Quicksand;letter-spacing:0px;word-spacing:0px;fill:#e5e5e5;fill-opacity:1;stroke:none;stroke-width:0.29615724px;stroke-linecap:butt;stroke-linejoin:miter;stroke-opacity:1"
       id="path3404-2-4-1-5" />
  </g>
</svg>
