<?xml version="1.0" encoding="UTF-8" standalone="no"?>
<svg
   xmlns:dc="http://purl.org/dc/elements/1.1/"
   xmlns:cc="http://creativecommons.org/ns#"
   xmlns:rdf="http://www.w3.org/1999/02/22-rdf-syntax-ns#"
   xmlns:svg="http://www.w3.org/2000/svg"
   xmlns="http://www.w3.org/2000/svg"
   width="4.6999998cm"
   height="3cm"
   viewBox="0 0 166.50344 106.2788"
   id="svg2"
   version="1.1">
  <defs
     id="defs4" />
  <metadata
     id="metadata7">
    <rdf:RDF>
      <cc:Work
         rdf:about="">
        <dc:format>image/svg+xml</dc:format>
        <dc:type
           rdf:resource="http://purl.org/dc/dcmitype/StillImage" />
        <dc:title></dc:title>
      </cc:Work>
    </rdf:RDF>
  </metadata>
  <g
     id="layer1"
     transform="matrix(0.14656392,0,0,0.14656392,68.665077,49.888248)"
     style="display:inline">
    <text
       xml:space="preserve"
       style="font-style:normal;font-weight:normal;font-size:40px;line-height:125%;font-family:sans-serif;letter-spacing:0px;word-spacing:0px;fill:#000000;fill-opacity:1;stroke:none;stroke-width:1px;stroke-linecap:butt;stroke-linejoin:miter;stroke-opacity:1"
       x="395.19513"
       y="334.12924"
       id="text3470"><tspan
         id="tspan3472"
         x="395.19513"
         y="334.12924" /></text>
    <g
       id="g4267">
      <path
         d="M 36.6179,321.79176 H 25.95384 v -2.51953 H 36.6179 Z"
         style="font-style:normal;font-variant:normal;font-weight:normal;font-stretch:normal;font-size:medium;line-height:125%;font-family:Leelawadee;-inkscape-font-specification:Leelawadee;letter-spacing:0px;word-spacing:0px;fill:#000000;fill-opacity:1;stroke:none;stroke-width:1px;stroke-linecap:butt;stroke-linejoin:miter;stroke-opacity:1"
         id="path3421" />
      <path
         d="M -380.12303,318.23257 V 111.94011 q 0,-3.16396 2.16606,-5.3787 2.16614,-2.21481 5.26051,-2.21481 3.09444,0 5.26058,2.21481 2.47553,2.21474 2.47553,5.3787 v 149.0242 l 89.73817,-91.4394 q 5.26051,-5.37885 10.52101,0 2.47553,2.21474 2.47553,5.37877 0,2.84757 -2.47553,5.37869 l -58.48458,59.79962 58.79397,73.08827 q 4.64166,5.69515 -0.61907,11.07392 -1.85668,1.58198 -4.95105,1.58198 -4.33221,0 -5.87935,-2.84758 l -58.1752,-71.82267 -30.94413,31.63993 v 35.43673 q 0,3.16404 -2.47552,5.37877 -2.16614,2.21482 -5.26059,2.21482 -3.09437,0 -5.26051,-2.21482 -2.16606,-2.21473 -2.16606,-5.37877 z"
         style="font-style:normal;font-variant:normal;font-weight:normal;font-stretch:normal;font-size:medium;line-height:125%;font-family:Quicksand;-inkscape-font-specification:Quicksand;letter-spacing:0px;word-spacing:0px;fill:#000000;fill-opacity:1;stroke:none;stroke-width:1px;stroke-linecap:butt;stroke-linejoin:miter;stroke-opacity:1"
         id="path3402" />
      <path
         d="m -65.56072,320.76377 -19.185426,-52.20588 h -98.711964 l -19.18543,52.20588 q -1.8566,5.06239 -7.11719,5.06239 -0.30953,0 -1.23776,0 -0.9283,-0.31638 -1.54722,-0.31638 -2.78491,-1.2656 -4.33221,-4.11317 -1.23776,-3.16404 0,-6.01154 l 75.19449,-205.34332 q 2.16606,-4.74593 7.42657,-4.74593 5.87943,0 7.42657,4.74593 l 75.194413,205.34332 q 1.237762,2.8475 0,6.01154 -1.237762,2.84757 -4.02267,4.11317 -0.619071,0 -1.547221,0.31638 -0.928379,0 -1.237763,0 -5.260584,0 -7.117189,-5.06239 z M -133.9474,134.0881 -177.88814,253.05427 h 87.572026 z"
         style="font-style:normal;font-variant:normal;font-weight:normal;font-stretch:normal;font-size:medium;line-height:125%;font-family:Quicksand;-inkscape-font-specification:Quicksand;letter-spacing:0px;word-spacing:0px;fill:#000000;fill-opacity:1;stroke:none;stroke-width:1px;stroke-linecap:butt;stroke-linejoin:miter;stroke-opacity:1"
         id="path3404" />
      <path
         d="M -0.54889081,303.04548 Q -21.590923,279.94827 -21.590923,248.30826 q 0,-31.63987 21.04203219,-54.4207 Q 20.493141,170.7905 50.199584,170.7905 q 29.706442,0 50.748476,23.09706 21.04211,22.78083 21.04211,54.4207 0,31.64001 -21.04211,54.73722 -21.042034,22.78068 -50.748476,22.78068 -29.706443,0 -50.74847481,-22.78068 z M -6.7377774,248.30826 q 0,25.6284 16.7099025,43.9796 17.0192859,18.3512 40.2274589,18.3512 23.208096,0 39.917999,-18.3512 17.019287,-18.3512 17.019287,-43.9796 0,-25.94472 -17.019287,-44.29592 -16.709903,-18.35112 -39.917999,-18.35112 -23.208173,0 -40.2274589,18.35112 -16.7099025,18.3512 -16.7099025,44.29592 z"
         style="font-style:normal;font-variant:normal;font-weight:normal;font-stretch:normal;font-size:medium;line-height:125%;font-family:Quicksand;-inkscape-font-specification:Quicksand;letter-spacing:0px;word-spacing:0px;fill:#000000;fill-opacity:1;stroke:none;stroke-width:1px;stroke-linecap:butt;stroke-linejoin:miter;stroke-opacity:1"
         id="path3406" />
      <path
         d="M 179.76816,318.23257 V 178.38409 q 0,-3.16403 2.16606,-5.37885 2.16615,-2.21474 5.26051,-2.21474 3.40391,0 5.56997,2.21474 2.16614,2.21482 2.16614,5.37885 v 139.84848 q 0,3.16404 -2.47552,5.37877 -2.16614,2.21482 -5.26059,2.21482 -3.09436,0 -5.26051,-2.21482 -2.16606,-2.21473 -2.16606,-5.37877 z m 0,-183.19525 v -7.27721 q 0,-3.16403 2.16606,-5.37884 2.16615,-2.21474 5.26051,-2.21474 3.09445,0 5.26059,2.21474 2.47552,2.21481 2.47552,5.37884 v 7.27721 q 0,3.48033 -2.47552,6.01153 -2.16614,2.21481 -5.26059,2.21481 -3.09436,0 -5.26051,-2.21481 -2.16606,-2.5312 -2.16606,-6.01153 z"
         style="font-style:normal;font-variant:normal;font-weight:normal;font-stretch:normal;font-size:medium;line-height:125%;font-family:Quicksand;-inkscape-font-specification:Quicksand;letter-spacing:0px;word-spacing:0px;fill:#000000;fill-opacity:1;stroke:none;stroke-width:1px;stroke-linecap:butt;stroke-linejoin:miter;stroke-opacity:1"
         id="path3408" />
      <path
         d="m 257.60303,177.11849 q 0,-30.05803 21.04211,-51.25681 21.04203,-21.51508 50.43902,-21.51508 27.5403,0 47.6541,18.6675 20.42319,18.35121 23.51756,45.87797 0.30953,0.31638 0.30953,0.94922 0,0.31638 0.30878,0.63276 0.61907,12.02314 0.61907,18.98396 0,50.94036 -20.73265,88.27544 -26.30254,46.19435 -75.81325,48.09271 h -0.30954 q -3.40382,0 -5.56989,-1.89836 -2.16614,-2.21481 -2.16614,-5.37885 0,-7.5935 7.42665,-8.22627 40.8463,-1.58205 63.1261,-40.18281 11.13993,-19.93318 15.47214,-44.29591 -20.73258,24.36273 -53.84292,24.36273 -29.70644,0 -50.74848,-21.1987 -20.73264,-21.51523 -20.73264,-51.8895 z m 71.48113,57.58465 q 23.82701,0 40.22745,-16.76915 16.40045,-16.76922 16.40045,-40.8155 0,-23.73005 -16.70983,-40.49919 -16.40044,-16.76923 -39.91807,-16.76923 -23.20818,0 -39.918,16.76923 -16.40045,16.76914 -16.40045,40.49919 0,24.04628 16.40045,40.8155 16.70982,16.76915 39.918,16.76915 z"
         style="font-style:normal;font-variant:normal;font-weight:normal;font-stretch:normal;font-size:medium;line-height:125%;font-family:Quicksand;-inkscape-font-specification:Quicksand;letter-spacing:0px;word-spacing:0px;fill:#000000;fill-opacity:1;stroke:none;stroke-width:1px;stroke-linecap:butt;stroke-linejoin:miter;stroke-opacity:1"
         id="path3410" />
      <path
         d="m 484.17259,325.1934 q -2.78491,-1.2656 -4.02267,-4.11325 -1.23776,-3.16396 -0.30954,-6.01161 L 559.98584,120.79929 H 455.39453 q -3.09452,0 -5.26059,-2.21482 -2.16614,-2.21481 -2.16614,-5.37877 0,-3.16395 2.16614,-5.37869 2.16607,-2.21481 5.26059,-2.21481 h 114.49341 q 2.47568,-0.63277 4.64166,0.31638 3.09445,1.5819 4.02283,4.74593 0.61907,1.89836 0.61907,2.53119 0,2.5312 -1.23776,4.11318 l -83.85875,203.76127 q -2.16614,4.74601 -6.8078,4.74601 -1.85661,0 -3.09445,-0.63276 z"
         style="font-style:normal;font-variant:normal;font-weight:normal;font-stretch:normal;font-size:medium;line-height:125%;font-family:Quicksand;-inkscape-font-specification:Quicksand;letter-spacing:0px;word-spacing:0px;fill:#000000;fill-opacity:1;stroke:none;stroke-width:1px;stroke-linecap:butt;stroke-linejoin:miter;stroke-opacity:1"
         id="path3412" />
    </g>
    <g
       id="g4256">
      <path
         id="path3367"
         d="m -365.63601,-270.2537 91.16919,227.294199"
         style="opacity:1;fill:#ffffff;fill-opacity:1;fill-rule:evenodd;stroke:#000000;stroke-width:20;stroke-linecap:round;stroke-linejoin:miter;stroke-miterlimit:4;stroke-dasharray:none;stroke-opacity:1" />
      <path
         id="path3367-3"
         d="M 564.56535,-270.19818 470.67822,-42.970263"
         style="display:inline;opacity:1;fill:#ffffff;fill-opacity:1;fill-rule:evenodd;stroke:#000000;stroke-width:20;stroke-linecap:round;stroke-linejoin:miter;stroke-miterlimit:4;stroke-dasharray:none;stroke-opacity:1" />
      <g
         id="g4248">
        <path
           style="fill:none;fill-rule:evenodd;stroke:#000000;stroke-width:20;stroke-linecap:round;stroke-linejoin:miter;stroke-miterlimit:4;stroke-dasharray:none;stroke-opacity:1"
           d="m -190.9793,-271.34909 c -60.25075,76.51912 -47.951,188.211219 0.125,241.228019"
           id="path4184" />
        <path
           style="display:inline;fill:none;fill-rule:evenodd;stroke:#000000;stroke-width:20;stroke-linecap:round;stroke-linejoin:miter;stroke-miterlimit:4;stroke-dasharray:none;stroke-opacity:1"
           d="m 389.0168,-271.34134 c 60.25075,76.51912 47.951,188.211219 -0.125,241.228021"
           id="path4184-6" />
        <g
           id="g4243">
          <path
             id="path4201"
             d="m -130.57215,-220.06557 c 5.02624,83.17863 132.6852838,81.16807 134.9947449,-0.22097"
             style="fill:none;fill-rule:evenodd;stroke:#000000;stroke-width:15;stroke-linecap:round;stroke-linejoin:miter;stroke-miterlimit:4;stroke-dasharray:none;stroke-opacity:1" />
          <path
             id="path4201-7"
             d="m 202.3171,-220.10365 c 5.02624,83.17863 132.68528,81.16807 134.99474,-0.22097"
             style="display:inline;fill:none;fill-rule:evenodd;stroke:#000000;stroke-width:15;stroke-linecap:round;stroke-linejoin:miter;stroke-miterlimit:4;stroke-dasharray:none;stroke-opacity:1" />
          <path
             id="path4241"
             d="m 116.75286,-124.8477 c 2.85247,29.03898 24.45121,34.678871 37.20007,34.282568 12.87697,-0.400286 30.33495,-7.329264 33.45865,-34.310268"
             style="fill:none;fill-rule:evenodd;stroke:#000000;stroke-width:15;stroke-linecap:round;stroke-linejoin:miter;stroke-miterlimit:4;stroke-dasharray:none;stroke-opacity:1" />
        </g>
      </g>
    </g>
  </g>
</svg>
